<?xml version="1.0" encoding="utf-8"?>
<!DOCTYPE eagle SYSTEM "eagle.dtd">
<eagle version="6.3">
<drawing>
<settings>
<setting alwaysvectorfont="no"/>
<setting verticaltext="up"/>
</settings>
<grid distance="0.025" unitdist="inch" unit="inch" style="lines" multiple="1" display="yes" altdistance="0.025" altunitdist="inch" altunit="inch"/>
<layers>
<layer number="1" name="Top" color="4" fill="1" visible="yes" active="yes"/>
<layer number="2" name="Route2" color="1" fill="3" visible="no" active="no"/>
<layer number="3" name="Route3" color="4" fill="3" visible="no" active="no"/>
<layer number="4" name="Route4" color="1" fill="4" visible="no" active="no"/>
<layer number="5" name="Route5" color="4" fill="4" visible="no" active="no"/>
<layer number="6" name="Route6" color="1" fill="8" visible="no" active="no"/>
<layer number="7" name="Route7" color="4" fill="8" visible="no" active="no"/>
<layer number="8" name="Route8" color="1" fill="2" visible="no" active="no"/>
<layer number="9" name="Route9" color="4" fill="2" visible="no" active="no"/>
<layer number="10" name="Route10" color="1" fill="7" visible="no" active="no"/>
<layer number="11" name="Route11" color="4" fill="7" visible="no" active="no"/>
<layer number="12" name="Route12" color="1" fill="5" visible="no" active="no"/>
<layer number="13" name="Route13" color="4" fill="5" visible="no" active="no"/>
<layer number="14" name="Route14" color="1" fill="6" visible="no" active="no"/>
<layer number="15" name="Route15" color="4" fill="6" visible="no" active="no"/>
<layer number="16" name="Bottom" color="1" fill="1" visible="yes" active="yes"/>
<layer number="17" name="Pads" color="2" fill="1" visible="yes" active="yes"/>
<layer number="18" name="Vias" color="2" fill="1" visible="yes" active="yes"/>
<layer number="19" name="Unrouted" color="6" fill="1" visible="yes" active="yes"/>
<layer number="20" name="Dimension" color="15" fill="1" visible="yes" active="yes"/>
<layer number="21" name="tPlace" color="7" fill="1" visible="yes" active="yes"/>
<layer number="22" name="bPlace" color="7" fill="1" visible="yes" active="yes"/>
<layer number="23" name="tOrigins" color="15" fill="1" visible="yes" active="yes"/>
<layer number="24" name="bOrigins" color="15" fill="1" visible="yes" active="yes"/>
<layer number="25" name="tNames" color="7" fill="1" visible="yes" active="yes"/>
<layer number="26" name="bNames" color="7" fill="1" visible="yes" active="yes"/>
<layer number="27" name="tValues" color="7" fill="1" visible="yes" active="yes"/>
<layer number="28" name="bValues" color="7" fill="1" visible="yes" active="yes"/>
<layer number="29" name="tStop" color="7" fill="3" visible="no" active="yes"/>
<layer number="30" name="bStop" color="7" fill="6" visible="no" active="yes"/>
<layer number="31" name="tCream" color="7" fill="4" visible="no" active="yes"/>
<layer number="32" name="bCream" color="7" fill="5" visible="no" active="yes"/>
<layer number="33" name="tFinish" color="6" fill="3" visible="no" active="yes"/>
<layer number="34" name="bFinish" color="6" fill="6" visible="no" active="yes"/>
<layer number="35" name="tGlue" color="7" fill="4" visible="no" active="yes"/>
<layer number="36" name="bGlue" color="7" fill="5" visible="no" active="yes"/>
<layer number="37" name="tTest" color="7" fill="1" visible="no" active="yes"/>
<layer number="38" name="bTest" color="7" fill="1" visible="no" active="yes"/>
<layer number="39" name="tKeepout" color="4" fill="11" visible="yes" active="yes"/>
<layer number="40" name="bKeepout" color="1" fill="11" visible="yes" active="yes"/>
<layer number="41" name="tRestrict" color="4" fill="10" visible="yes" active="yes"/>
<layer number="42" name="bRestrict" color="1" fill="10" visible="yes" active="yes"/>
<layer number="43" name="vRestrict" color="2" fill="10" visible="yes" active="yes"/>
<layer number="44" name="Drills" color="7" fill="1" visible="no" active="yes"/>
<layer number="45" name="Holes" color="7" fill="1" visible="no" active="yes"/>
<layer number="46" name="Milling" color="3" fill="1" visible="no" active="yes"/>
<layer number="47" name="Measures" color="7" fill="1" visible="no" active="yes"/>
<layer number="48" name="Document" color="7" fill="1" visible="yes" active="yes"/>
<layer number="49" name="Reference" color="7" fill="1" visible="yes" active="yes"/>
<layer number="50" name="dxf" color="7" fill="1" visible="no" active="yes"/>
<layer number="51" name="tDocu" color="7" fill="1" visible="yes" active="yes"/>
<layer number="52" name="bDocu" color="7" fill="1" visible="yes" active="yes"/>
<layer number="53" name="tGND_GNDA" color="7" fill="9" visible="no" active="no"/>
<layer number="54" name="bGND_GNDA" color="1" fill="9" visible="no" active="no"/>
<layer number="56" name="wert" color="7" fill="1" visible="no" active="no"/>
<layer number="91" name="Nets" color="2" fill="1" visible="no" active="no"/>
<layer number="92" name="Busses" color="1" fill="1" visible="no" active="no"/>
<layer number="93" name="Pins" color="2" fill="1" visible="no" active="no"/>
<layer number="94" name="Symbols" color="4" fill="1" visible="no" active="no"/>
<layer number="95" name="Names" color="7" fill="1" visible="no" active="no"/>
<layer number="96" name="Values" color="7" fill="1" visible="no" active="no"/>
<layer number="97" name="Info" color="7" fill="1" visible="no" active="no"/>
<layer number="98" name="Guide" color="6" fill="1" visible="no" active="no"/>
<layer number="100" name="Muster" color="7" fill="1" visible="no" active="no"/>
<layer number="101" name="Hidden" color="15" fill="1" visible="yes" active="yes"/>
<layer number="102" name="Changes" color="12" fill="1" visible="yes" active="yes"/>
<layer number="103" name="tMap" color="7" fill="1" visible="yes" active="yes"/>
<layer number="104" name="Name" color="16" fill="1" visible="yes" active="yes"/>
<layer number="105" name="tPlate" color="7" fill="1" visible="yes" active="yes"/>
<layer number="106" name="bPlate" color="7" fill="1" visible="yes" active="yes"/>
<layer number="107" name="Crop" color="7" fill="1" visible="yes" active="yes"/>
<layer number="108" name="fp8" color="7" fill="1" visible="yes" active="yes"/>
<layer number="109" name="fp9" color="7" fill="1" visible="yes" active="yes"/>
<layer number="110" name="fp0" color="7" fill="1" visible="yes" active="yes"/>
<layer number="111" name="KASTMAAT1" color="7" fill="1" visible="yes" active="yes"/>
<layer number="112" name="KASTMAAT2" color="7" fill="1" visible="yes" active="yes"/>
<layer number="113" name="FRNTTEKEN" color="7" fill="1" visible="yes" active="yes"/>
<layer number="114" name="FRNTMAAT1" color="7" fill="1" visible="yes" active="yes"/>
<layer number="115" name="FRNTMAAT2" color="7" fill="1" visible="yes" active="yes"/>
<layer number="116" name="Patch_BOT" color="9" fill="4" visible="yes" active="yes"/>
<layer number="117" name="BACKMAAT1" color="7" fill="1" visible="yes" active="yes"/>
<layer number="118" name="BACKMAAT2" color="7" fill="1" visible="yes" active="yes"/>
<layer number="119" name="KAP_TEKEN" color="7" fill="1" visible="yes" active="yes"/>
<layer number="120" name="KAP_MAAT1" color="7" fill="1" visible="yes" active="yes"/>
<layer number="121" name="_tsilk" color="7" fill="1" visible="yes" active="yes"/>
<layer number="122" name="_bsilk" color="7" fill="1" visible="yes" active="yes"/>
<layer number="123" name="tTestmark" color="7" fill="1" visible="yes" active="yes"/>
<layer number="124" name="bTestmark" color="7" fill="1" visible="yes" active="yes"/>
<layer number="125" name="BIFRNTTEK" color="7" fill="1" visible="yes" active="yes"/>
<layer number="126" name="BIFRNTMAT" color="7" fill="1" visible="yes" active="yes"/>
<layer number="130" name="SMDSTROOK" color="7" fill="1" visible="yes" active="yes"/>
<layer number="131" name="tAdjust" color="7" fill="1" visible="yes" active="yes"/>
<layer number="132" name="bAdjust" color="7" fill="1" visible="yes" active="yes"/>
<layer number="144" name="Drill_legend" color="7" fill="1" visible="yes" active="yes"/>
<layer number="151" name="HeatSink" color="7" fill="1" visible="yes" active="yes"/>
<layer number="199" name="Contour" color="7" fill="1" visible="yes" active="yes"/>
<layer number="200" name="200bmp" color="1" fill="10" visible="no" active="no"/>
<layer number="201" name="201bmp" color="2" fill="10" visible="yes" active="yes"/>
<layer number="202" name="202bmp" color="3" fill="10" visible="yes" active="yes"/>
<layer number="203" name="203bmp" color="4" fill="10" visible="yes" active="yes"/>
<layer number="204" name="204bmp" color="5" fill="10" visible="yes" active="yes"/>
<layer number="205" name="205bmp" color="6" fill="10" visible="yes" active="yes"/>
<layer number="206" name="206bmp" color="7" fill="10" visible="yes" active="yes"/>
<layer number="207" name="207bmp" color="8" fill="10" visible="yes" active="yes"/>
<layer number="208" name="208bmp" color="9" fill="10" visible="yes" active="yes"/>
<layer number="209" name="209bmp" color="7" fill="1" visible="yes" active="yes"/>
<layer number="210" name="210bmp" color="7" fill="1" visible="yes" active="yes"/>
<layer number="216" name="BottomExtra" color="7" fill="1" visible="yes" active="yes"/>
<layer number="250" name="Descript" color="3" fill="1" visible="no" active="no"/>
<layer number="251" name="SMDround" color="12" fill="11" visible="no" active="no"/>
<layer number="254" name="cooling" color="7" fill="1" visible="yes" active="yes"/>
<layer number="255" name="Accent" color="7" fill="1" visible="yes" active="yes"/>
</layers>
<board>
<plain>
<wire x1="0" y1="0" x2="202" y2="0" width="0" layer="20"/>
<wire x1="202" y1="0" x2="202" y2="121" width="0" layer="20"/>
<wire x1="202" y1="121" x2="0" y2="121" width="0" layer="20"/>
<wire x1="0" y1="121" x2="0" y2="0" width="0" layer="20"/>
</plain>
<libraries>
<library name="nixie">
<packages>
<package name="Z573M">
<pad name="7" x="8.03" y="16.67" drill="1.2" diameter="3"/>
<pad name="6" x="0" y="18.5" drill="1.2" diameter="3"/>
<pad name="5" x="-8.03" y="16.67" drill="1.2" diameter="3"/>
<pad name="2" x="-14.46" y="-11.53" drill="1.2" diameter="3"/>
<pad name="1" x="-8.03" y="-16.67" drill="1.2" diameter="3"/>
<pad name="3" x="-18.04" y="-4.12" drill="1.2" diameter="3"/>
<pad name="IC" x="-18.04" y="4.12" drill="1.2" diameter="3"/>
<pad name="4" x="-14.46" y="11.53" drill="1.2" diameter="3"/>
<pad name="DP" x="18.04" y="4.12" drill="1.2" diameter="3"/>
<pad name="9" x="18.04" y="-4.12" drill="1.2" diameter="3"/>
<pad name="0" x="14.46" y="-11.53" drill="1.2" diameter="3"/>
<pad name="A" x="8.03" y="-16.67" drill="1.2" diameter="3"/>
<pad name="8" x="14.46" y="11.53" drill="1.2" diameter="3"/>
<circle x="0" y="0" radius="21" width="0.127" layer="48"/>
<text x="-7" y="-14" size="1.27" layer="48">k1</text>
<text x="-12" y="-10" size="1.27" layer="48">k2</text>
<text x="-15" y="-4" size="1.27" layer="48">k3</text>
<text x="-15" y="3.25" size="1.27" layer="48">IC</text>
<text x="-12.5" y="9" size="1.27" layer="48">k4</text>
<text x="-7" y="13.25" size="1.27" layer="48">k5</text>
<text x="-0.75" y="14.75" size="1.27" layer="48">k6</text>
<text x="5.75" y="13.5" size="1.27" layer="48">k7</text>
<text x="11.25" y="9.25" size="1.27" layer="48">k8</text>
<text x="14.25" y="3.25" size="1.27" layer="48">dp</text>
<text x="14.25" y="-4.75" size="1.27" layer="48">k9</text>
<text x="11.25" y="-10.25" size="1.27" layer="48">k0</text>
<text x="5.5" y="-14" size="1.27" layer="48">A</text>
<text x="-6.35" y="1.27" size="2.54" layer="25">&gt;Name</text>
<text x="-6.35" y="-2.54" size="2.54" layer="27">&gt;Value</text>
</package>
</packages>
</library>
<library name="led_driver">
<packages>
<package name="SOP24">
<wire x1="-7.756" y1="3.95" x2="-7.755" y2="3.95" width="0.1524" layer="21"/>
<wire x1="-7.755" y1="3.95" x2="7.755" y2="3.95" width="0.1524" layer="21"/>
<wire x1="8.005" y1="3.7" x2="8.005" y2="-3.7" width="0.1524" layer="21"/>
<wire x1="7.755" y1="-3.95" x2="-7.755" y2="-3.95" width="0.1524" layer="21"/>
<wire x1="-8.005" y1="-3.71" x2="-8.005" y2="3.7" width="0.1524" layer="21"/>
<wire x1="-7.505" y1="3.7" x2="7.515" y2="3.7" width="0.0508" layer="21"/>
<wire x1="7.755" y1="3.46" x2="7.755" y2="-3.45" width="0.0508" layer="21"/>
<wire x1="7.505" y1="-3.7" x2="-7.505" y2="-3.7" width="0.0508" layer="21"/>
<wire x1="-7.755" y1="-3.45" x2="-7.755" y2="3.45" width="0.0508" layer="21"/>
<wire x1="7.755" y1="3.95" x2="8.005" y2="3.7" width="0.1524" layer="21" curve="-90"/>
<wire x1="7.755" y1="-3.95" x2="8.005" y2="-3.7" width="0.1524" layer="21" curve="90"/>
<wire x1="-8.005" y1="-3.71" x2="-7.755" y2="-3.95" width="0.1524" layer="21" curve="87.753395"/>
<wire x1="-7.755" y1="-3.45" x2="-7.505" y2="-3.7" width="0.0508" layer="21" curve="90"/>
<wire x1="-8.005" y1="3.7" x2="-7.755" y2="3.95" width="0.1524" layer="21" curve="-90"/>
<wire x1="-7.755" y1="3.45" x2="-7.505" y2="3.7" width="0.0508" layer="21" curve="-90"/>
<wire x1="7.505" y1="-3.7" x2="7.755" y2="-3.45" width="0.0508" layer="21" curve="90"/>
<wire x1="7.515" y1="3.7" x2="7.755" y2="3.46" width="0.0508" layer="21" curve="-87.661721"/>
<circle x="-6.505" y="-2.45" radius="0.5" width="0.0508" layer="21"/>
<smd name="GND" x="-6.985" y="-5.5" dx="0.5" dy="2.2" layer="1"/>
<smd name="SDI" x="-5.715" y="-5.5" dx="0.5" dy="2.2" layer="1"/>
<smd name="CLK" x="-4.445" y="-5.5" dx="0.5" dy="2.2" layer="1"/>
<smd name="LA/" x="-3.175" y="-5.5" dx="0.5" dy="2.2" layer="1"/>
<smd name="O0" x="-1.905" y="-5.5" dx="0.5" dy="2.2" layer="1"/>
<smd name="O1" x="-0.635" y="-5.5" dx="0.5" dy="2.2" layer="1"/>
<smd name="O2" x="0.635" y="-5.5" dx="0.5" dy="2.2" layer="1"/>
<smd name="O3" x="1.905" y="-5.5" dx="0.5" dy="2.2" layer="1"/>
<smd name="O4" x="3.175" y="-5.5" dx="0.5" dy="2.2" layer="1"/>
<smd name="O5" x="4.445" y="-5.5" dx="0.5" dy="2.2" layer="1"/>
<smd name="O6" x="5.715" y="-5.5" dx="0.5" dy="2.2" layer="1"/>
<smd name="O7" x="6.985" y="-5.5" dx="0.5" dy="2.2" layer="1"/>
<smd name="VDD" x="-6.985" y="5.5" dx="0.5" dy="2.2" layer="1"/>
<smd name="REXT" x="-5.715" y="5.5" dx="0.5" dy="2.2" layer="1"/>
<smd name="SDO" x="-4.445" y="5.5" dx="0.5" dy="2.2" layer="1"/>
<smd name="OE/" x="-3.175" y="5.5" dx="0.5" dy="2.2" layer="1"/>
<smd name="O15" x="-1.905" y="5.5" dx="0.5" dy="2.2" layer="1"/>
<smd name="O14" x="-0.635" y="5.5" dx="0.5" dy="2.2" layer="1"/>
<smd name="O13" x="0.635" y="5.5" dx="0.5" dy="2.2" layer="1"/>
<smd name="O12" x="1.905" y="5.5" dx="0.5" dy="2.2" layer="1"/>
<smd name="O11" x="3.175" y="5.5" dx="0.5" dy="2.2" layer="1"/>
<smd name="O10" x="4.445" y="5.5" dx="0.5" dy="2.2" layer="1"/>
<smd name="O9" x="5.715" y="5.5" dx="0.5" dy="2.2" layer="1"/>
<smd name="O8" x="6.985" y="5.5" dx="0.5" dy="2.2" layer="1"/>
<text x="-8.763" y="-3.302" size="1.27" layer="25" ratio="10" rot="R90">&gt;NAME</text>
<text x="-6.477" y="-1.016" size="1.27" layer="27" ratio="10">&gt;VALUE</text>
<rectangle x1="-7.16" y1="3.95" x2="-6.81" y2="6" layer="51"/>
<rectangle x1="-5.89" y1="3.95" x2="-5.54" y2="6" layer="51"/>
<rectangle x1="-4.62" y1="3.95" x2="-4.27" y2="6" layer="51"/>
<rectangle x1="-3.35" y1="3.95" x2="-3" y2="6" layer="51"/>
<rectangle x1="-2.08" y1="3.95" x2="-1.73" y2="6" layer="51"/>
<rectangle x1="-0.81" y1="3.95" x2="-0.46" y2="6" layer="51"/>
<rectangle x1="0.46" y1="3.95" x2="0.81" y2="6" layer="51"/>
<rectangle x1="1.73" y1="3.95" x2="2.08" y2="6" layer="51"/>
<rectangle x1="3" y1="3.95" x2="3.35" y2="6" layer="51"/>
<rectangle x1="4.27" y1="3.95" x2="4.62" y2="6" layer="51"/>
<rectangle x1="5.54" y1="3.95" x2="5.89" y2="6" layer="51"/>
<rectangle x1="6.81" y1="3.95" x2="7.16" y2="6" layer="51"/>
<rectangle x1="-7.16" y1="-6" x2="-6.81" y2="-3.95" layer="51"/>
<rectangle x1="-5.89" y1="-6" x2="-5.54" y2="-3.95" layer="51"/>
<rectangle x1="-4.62" y1="-6" x2="-4.27" y2="-3.95" layer="51"/>
<rectangle x1="-3.35" y1="-6" x2="-3" y2="-3.95" layer="51"/>
<rectangle x1="-2.08" y1="-6" x2="-1.73" y2="-3.95" layer="51"/>
<rectangle x1="-0.81" y1="-6" x2="-0.46" y2="-3.95" layer="51"/>
<rectangle x1="0.46" y1="-6" x2="0.81" y2="-3.95" layer="51"/>
<rectangle x1="1.73" y1="-6" x2="2.08" y2="-3.95" layer="51"/>
<rectangle x1="3" y1="-6" x2="3.35" y2="-3.95" layer="51"/>
<rectangle x1="4.27" y1="-6" x2="4.62" y2="-3.95" layer="51"/>
<rectangle x1="5.54" y1="-6" x2="5.89" y2="-3.95" layer="51"/>
<rectangle x1="6.81" y1="-6" x2="7.16" y2="-3.95" layer="51"/>
</package>
</packages>
</library>
<library name="atmel">
<description>&lt;b&gt;AVR Devices&lt;/b&gt;&lt;p&gt;
Configurable logic, microcontrollers, nonvolatile memories&lt;p&gt;
Based on the following sources:&lt;p&gt;
&lt;ul&gt;
&lt;li&gt;www.atmel.com
&lt;li&gt;CD-ROM : Configurable Logic Microcontroller Nonvolatile Memory
&lt;li&gt;CadSoft download site, www.cadsoft.de or www.cadsoftusa.com , file at90smcu_v400.zip
&lt;li&gt;avr.lbr
&lt;/ul&gt;
&lt;author&gt;Revised by librarian@cadsoft.de&lt;/author&gt;</description>
<packages>
<package name="TQFP44">
<description>&lt;b&gt;44-lead Thin Quad Flat Package&lt;/b&gt;</description>
<wire x1="-4.8" y1="4.4" x2="-4.4" y2="4.8" width="0.2032" layer="21"/>
<wire x1="-4.4" y1="4.8" x2="4.4" y2="4.8" width="0.2032" layer="21"/>
<wire x1="4.4" y1="4.8" x2="4.8" y2="4.4" width="0.2032" layer="21"/>
<wire x1="4.8" y1="4.4" x2="4.8" y2="-4.4" width="0.2032" layer="21"/>
<wire x1="4.8" y1="-4.4" x2="4.4" y2="-4.8" width="0.2032" layer="21"/>
<wire x1="4.4" y1="-4.8" x2="-4.4" y2="-4.8" width="0.2032" layer="21"/>
<wire x1="-4.4" y1="-4.8" x2="-4.8" y2="-4.4" width="0.2032" layer="21"/>
<wire x1="-4.8" y1="-4.4" x2="-4.8" y2="4.4" width="0.2032" layer="21"/>
<circle x="-4" y="4" radius="0.2827" width="0.254" layer="21"/>
<smd name="1" x="-5.8" y="4" dx="1.5" dy="0.5" layer="1"/>
<smd name="2" x="-5.8" y="3.2" dx="1.5" dy="0.5" layer="1"/>
<smd name="3" x="-5.8" y="2.4" dx="1.5" dy="0.5" layer="1"/>
<smd name="4" x="-5.8" y="1.6" dx="1.5" dy="0.5" layer="1"/>
<smd name="5" x="-5.8" y="0.8" dx="1.5" dy="0.5" layer="1"/>
<smd name="6" x="-5.8" y="0" dx="1.5" dy="0.5" layer="1"/>
<smd name="7" x="-5.8" y="-0.8" dx="1.5" dy="0.5" layer="1"/>
<smd name="8" x="-5.8" y="-1.6" dx="1.5" dy="0.5" layer="1"/>
<smd name="9" x="-5.8" y="-2.4" dx="1.5" dy="0.5" layer="1"/>
<smd name="10" x="-5.8" y="-3.2" dx="1.5" dy="0.5" layer="1"/>
<smd name="11" x="-5.8" y="-4" dx="1.5" dy="0.5" layer="1"/>
<smd name="12" x="-4" y="-5.8" dx="0.5" dy="1.5" layer="1"/>
<smd name="13" x="-3.2" y="-5.8" dx="0.5" dy="1.5" layer="1"/>
<smd name="14" x="-2.4" y="-5.8" dx="0.5" dy="1.5" layer="1"/>
<smd name="15" x="-1.6" y="-5.8" dx="0.5" dy="1.5" layer="1"/>
<smd name="16" x="-0.8" y="-5.8" dx="0.5" dy="1.5" layer="1"/>
<smd name="17" x="0" y="-5.8" dx="0.5" dy="1.5" layer="1"/>
<smd name="18" x="0.8" y="-5.8" dx="0.5" dy="1.5" layer="1"/>
<smd name="19" x="1.6" y="-5.8" dx="0.5" dy="1.5" layer="1"/>
<smd name="20" x="2.4" y="-5.8" dx="0.5" dy="1.5" layer="1"/>
<smd name="21" x="3.2" y="-5.8" dx="0.5" dy="1.5" layer="1"/>
<smd name="22" x="4" y="-5.8" dx="0.5" dy="1.5" layer="1"/>
<smd name="23" x="5.8" y="-4" dx="1.5" dy="0.5" layer="1"/>
<smd name="24" x="5.8" y="-3.2" dx="1.5" dy="0.5" layer="1"/>
<smd name="25" x="5.8" y="-2.4" dx="1.5" dy="0.5" layer="1"/>
<smd name="26" x="5.8" y="-1.6" dx="1.5" dy="0.5" layer="1"/>
<smd name="27" x="5.8" y="-0.8" dx="1.5" dy="0.5" layer="1"/>
<smd name="28" x="5.8" y="0" dx="1.5" dy="0.5" layer="1"/>
<smd name="29" x="5.8" y="0.8" dx="1.5" dy="0.5" layer="1"/>
<smd name="30" x="5.8" y="1.6" dx="1.5" dy="0.5" layer="1"/>
<smd name="31" x="5.8" y="2.4" dx="1.5" dy="0.5" layer="1"/>
<smd name="32" x="5.8" y="3.2" dx="1.5" dy="0.5" layer="1"/>
<smd name="33" x="5.8" y="4" dx="1.5" dy="0.5" layer="1"/>
<smd name="34" x="4" y="5.8" dx="0.5" dy="1.5" layer="1"/>
<smd name="35" x="3.2" y="5.8" dx="0.5" dy="1.5" layer="1"/>
<smd name="36" x="2.4" y="5.8" dx="0.5" dy="1.5" layer="1"/>
<smd name="37" x="1.6" y="5.8" dx="0.5" dy="1.5" layer="1"/>
<smd name="38" x="0.8" y="5.8" dx="0.5" dy="1.5" layer="1"/>
<smd name="39" x="0" y="5.8" dx="0.5" dy="1.5" layer="1"/>
<smd name="40" x="-0.8" y="5.8" dx="0.5" dy="1.5" layer="1"/>
<smd name="41" x="-1.6" y="5.8" dx="0.5" dy="1.5" layer="1"/>
<smd name="42" x="-2.4" y="5.8" dx="0.5" dy="1.5" layer="1"/>
<smd name="43" x="-3.2" y="5.8" dx="0.5" dy="1.5" layer="1"/>
<smd name="44" x="-4" y="5.8" dx="0.5" dy="1.5" layer="1"/>
<text x="-3.81" y="6.985" size="1.778" layer="25">&gt;NAME</text>
<text x="-4.445" y="-8.7551" size="1.778" layer="27">&gt;VALUE</text>
<rectangle x1="-6.1001" y1="3.8001" x2="-4.95" y2="4.1999" layer="51"/>
<rectangle x1="-6.1001" y1="3" x2="-4.95" y2="3.4" layer="51"/>
<rectangle x1="-6.1001" y1="2.1999" x2="-4.95" y2="2.5999" layer="51"/>
<rectangle x1="-6.1001" y1="1.4" x2="-4.95" y2="1.8001" layer="51"/>
<rectangle x1="-6.1001" y1="0.5999" x2="-4.95" y2="1" layer="51"/>
<rectangle x1="-6.1001" y1="-0.1999" x2="-4.95" y2="0.1999" layer="51"/>
<rectangle x1="-6.1001" y1="-1" x2="-4.95" y2="-0.5999" layer="51"/>
<rectangle x1="-6.1001" y1="-1.8001" x2="-4.95" y2="-1.4" layer="51"/>
<rectangle x1="-6.1001" y1="-2.5999" x2="-4.95" y2="-2.1999" layer="51"/>
<rectangle x1="-6.1001" y1="-3.4" x2="-4.95" y2="-3" layer="51"/>
<rectangle x1="-6.1001" y1="-4.1999" x2="-4.95" y2="-3.8001" layer="51"/>
<rectangle x1="-4.1999" y1="-6.1001" x2="-3.8001" y2="-4.95" layer="51"/>
<rectangle x1="-3.4" y1="-6.1001" x2="-3" y2="-4.95" layer="51"/>
<rectangle x1="-2.5999" y1="-6.1001" x2="-2.1999" y2="-4.95" layer="51"/>
<rectangle x1="-1.8001" y1="-6.1001" x2="-1.4" y2="-4.95" layer="51"/>
<rectangle x1="-1" y1="-6.1001" x2="-0.5999" y2="-4.95" layer="51"/>
<rectangle x1="-0.1999" y1="-6.1001" x2="0.1999" y2="-4.95" layer="51"/>
<rectangle x1="0.5999" y1="-6.1001" x2="1" y2="-4.95" layer="51"/>
<rectangle x1="1.4" y1="-6.1001" x2="1.8001" y2="-4.95" layer="51"/>
<rectangle x1="2.1999" y1="-6.1001" x2="2.5999" y2="-4.95" layer="51"/>
<rectangle x1="3" y1="-6.1001" x2="3.4" y2="-4.95" layer="51"/>
<rectangle x1="3.8001" y1="-6.1001" x2="4.1999" y2="-4.95" layer="51"/>
<rectangle x1="4.95" y1="-4.1999" x2="6.1001" y2="-3.8001" layer="51"/>
<rectangle x1="4.95" y1="-3.4" x2="6.1001" y2="-3" layer="51"/>
<rectangle x1="4.95" y1="-2.5999" x2="6.1001" y2="-2.1999" layer="51"/>
<rectangle x1="4.95" y1="-1.8001" x2="6.1001" y2="-1.4" layer="51"/>
<rectangle x1="4.95" y1="-1" x2="6.1001" y2="-0.5999" layer="51"/>
<rectangle x1="4.95" y1="-0.1999" x2="6.1001" y2="0.1999" layer="51"/>
<rectangle x1="4.95" y1="0.5999" x2="6.1001" y2="1" layer="51"/>
<rectangle x1="4.95" y1="1.4" x2="6.1001" y2="1.8001" layer="51"/>
<rectangle x1="4.95" y1="2.1999" x2="6.1001" y2="2.5999" layer="51"/>
<rectangle x1="4.95" y1="3" x2="6.1001" y2="3.4" layer="51"/>
<rectangle x1="4.95" y1="3.8001" x2="6.1001" y2="4.1999" layer="51"/>
<rectangle x1="3.8001" y1="4.95" x2="4.1999" y2="6.1001" layer="51"/>
<rectangle x1="3" y1="4.95" x2="3.4" y2="6.1001" layer="51"/>
<rectangle x1="2.1999" y1="4.95" x2="2.5999" y2="6.1001" layer="51"/>
<rectangle x1="1.4" y1="4.95" x2="1.8001" y2="6.1001" layer="51"/>
<rectangle x1="0.5999" y1="4.95" x2="1" y2="6.1001" layer="51"/>
<rectangle x1="-0.1999" y1="4.95" x2="0.1999" y2="6.1001" layer="51"/>
<rectangle x1="-1" y1="4.95" x2="-0.5999" y2="6.1001" layer="51"/>
<rectangle x1="-1.8001" y1="4.95" x2="-1.4" y2="6.1001" layer="51"/>
<rectangle x1="-2.5999" y1="4.95" x2="-2.1999" y2="6.1001" layer="51"/>
<rectangle x1="-3.4" y1="4.95" x2="-3" y2="6.1001" layer="51"/>
<rectangle x1="-4.1999" y1="4.95" x2="-3.8001" y2="6.1001" layer="51"/>
</package>
</packages>
</library>
<library name="con-lstb">
<description>&lt;b&gt;Pin Headers&lt;/b&gt;&lt;p&gt;
Naming:&lt;p&gt;
MA = male&lt;p&gt;
# contacts - # rows&lt;p&gt;
W = angled&lt;p&gt;
&lt;author&gt;Created by librarian@cadsoft.de&lt;/author&gt;</description>
<packages>
<package name="MA05-2">
<description>&lt;b&gt;PIN HEADER&lt;/b&gt;</description>
<wire x1="-5.715" y1="2.54" x2="-4.445" y2="2.54" width="0.1524" layer="21"/>
<wire x1="-4.445" y1="2.54" x2="-3.81" y2="1.905" width="0.1524" layer="21"/>
<wire x1="-3.81" y1="1.905" x2="-3.175" y2="2.54" width="0.1524" layer="21"/>
<wire x1="-3.175" y1="2.54" x2="-1.905" y2="2.54" width="0.1524" layer="21"/>
<wire x1="-1.905" y1="2.54" x2="-1.27" y2="1.905" width="0.1524" layer="21"/>
<wire x1="-5.715" y1="2.54" x2="-6.35" y2="1.905" width="0.1524" layer="21"/>
<wire x1="-1.27" y1="1.905" x2="-0.635" y2="2.54" width="0.1524" layer="21"/>
<wire x1="-0.635" y1="2.54" x2="0.635" y2="2.54" width="0.1524" layer="21"/>
<wire x1="0.635" y1="2.54" x2="1.27" y2="1.905" width="0.1524" layer="21"/>
<wire x1="1.905" y1="2.54" x2="3.175" y2="2.54" width="0.1524" layer="21"/>
<wire x1="3.175" y1="2.54" x2="3.81" y2="1.905" width="0.1524" layer="21"/>
<wire x1="3.81" y1="1.905" x2="4.445" y2="2.54" width="0.1524" layer="21"/>
<wire x1="4.445" y1="2.54" x2="5.715" y2="2.54" width="0.1524" layer="21"/>
<wire x1="1.905" y1="2.54" x2="1.27" y2="1.905" width="0.1524" layer="21"/>
<wire x1="-3.81" y1="-1.905" x2="-4.445" y2="-2.54" width="0.1524" layer="21"/>
<wire x1="-1.27" y1="-1.905" x2="-1.905" y2="-2.54" width="0.1524" layer="21"/>
<wire x1="-1.905" y1="-2.54" x2="-3.175" y2="-2.54" width="0.1524" layer="21"/>
<wire x1="-3.175" y1="-2.54" x2="-3.81" y2="-1.905" width="0.1524" layer="21"/>
<wire x1="-6.35" y1="1.905" x2="-6.35" y2="-1.905" width="0.1524" layer="21"/>
<wire x1="-6.35" y1="-1.905" x2="-5.715" y2="-2.54" width="0.1524" layer="21"/>
<wire x1="-4.445" y1="-2.54" x2="-5.715" y2="-2.54" width="0.1524" layer="21"/>
<wire x1="1.27" y1="-1.905" x2="0.635" y2="-2.54" width="0.1524" layer="21"/>
<wire x1="0.635" y1="-2.54" x2="-0.635" y2="-2.54" width="0.1524" layer="21"/>
<wire x1="-0.635" y1="-2.54" x2="-1.27" y2="-1.905" width="0.1524" layer="21"/>
<wire x1="3.81" y1="-1.905" x2="3.175" y2="-2.54" width="0.1524" layer="21"/>
<wire x1="5.715" y1="-2.54" x2="4.445" y2="-2.54" width="0.1524" layer="21"/>
<wire x1="4.445" y1="-2.54" x2="3.81" y2="-1.905" width="0.1524" layer="21"/>
<wire x1="1.27" y1="-1.905" x2="1.905" y2="-2.54" width="0.1524" layer="21"/>
<wire x1="3.175" y1="-2.54" x2="1.905" y2="-2.54" width="0.1524" layer="21"/>
<wire x1="6.35" y1="1.905" x2="6.35" y2="-1.905" width="0.1524" layer="21"/>
<wire x1="5.715" y1="2.54" x2="6.35" y2="1.905" width="0.1524" layer="21"/>
<wire x1="6.35" y1="-1.905" x2="5.715" y2="-2.54" width="0.1524" layer="21"/>
<pad name="1" x="-5.08" y="-1.27" drill="1.016" shape="octagon"/>
<pad name="3" x="-2.54" y="-1.27" drill="1.016" shape="octagon"/>
<pad name="5" x="0" y="-1.27" drill="1.016" shape="octagon"/>
<pad name="7" x="2.54" y="-1.27" drill="1.016" shape="octagon"/>
<pad name="9" x="5.08" y="-1.27" drill="1.016" shape="octagon"/>
<pad name="2" x="-5.08" y="1.27" drill="1.016" shape="octagon"/>
<pad name="4" x="-2.54" y="1.27" drill="1.016" shape="octagon"/>
<pad name="6" x="0" y="1.27" drill="1.016" shape="octagon"/>
<pad name="8" x="2.54" y="1.27" drill="1.016" shape="octagon"/>
<pad name="10" x="5.08" y="1.27" drill="1.016" shape="octagon"/>
<text x="-5.588" y="-4.191" size="1.27" layer="21" ratio="10">1</text>
<text x="-6.35" y="2.921" size="1.27" layer="25" ratio="10">&gt;NAME</text>
<text x="0" y="-4.191" size="1.27" layer="27" ratio="10">&gt;VALUE</text>
<text x="4.572" y="2.921" size="1.27" layer="21" ratio="10">10</text>
<rectangle x1="-2.794" y1="-1.524" x2="-2.286" y2="-1.016" layer="51"/>
<rectangle x1="-5.334" y1="-1.524" x2="-4.826" y2="-1.016" layer="51"/>
<rectangle x1="-0.254" y1="-1.524" x2="0.254" y2="-1.016" layer="51"/>
<rectangle x1="4.826" y1="-1.524" x2="5.334" y2="-1.016" layer="51"/>
<rectangle x1="2.286" y1="-1.524" x2="2.794" y2="-1.016" layer="51"/>
<rectangle x1="-5.334" y1="1.016" x2="-4.826" y2="1.524" layer="51"/>
<rectangle x1="-2.794" y1="1.016" x2="-2.286" y2="1.524" layer="51"/>
<rectangle x1="-0.254" y1="1.016" x2="0.254" y2="1.524" layer="51"/>
<rectangle x1="2.286" y1="1.016" x2="2.794" y2="1.524" layer="51"/>
<rectangle x1="4.826" y1="1.016" x2="5.334" y2="1.524" layer="51"/>
</package>
</packages>
</library>
<library name="crystal">
<packages>
<package name="CFPX-217">
<smd name="A" x="-1.3" y="0" dx="1.9" dy="1.1" layer="1" rot="R90"/>
<smd name="B" x="1.3" y="0" dx="1.9" dy="1.1" layer="1" rot="R90"/>
<wire x1="-1.8" y1="0.9" x2="1.8" y2="0.9" width="0.127" layer="48"/>
<wire x1="1.8" y1="0.9" x2="1.8" y2="-0.9" width="0.127" layer="48"/>
<wire x1="1.8" y1="-0.9" x2="-1.8" y2="-0.9" width="0.127" layer="48"/>
<wire x1="-1.8" y1="-0.9" x2="-1.8" y2="0.9" width="0.127" layer="48"/>
</package>
</packages>
</library>
<library name="diode">
<description>&lt;b&gt;Diodes&lt;/b&gt;&lt;p&gt;
Based on the following sources:
&lt;ul&gt;
&lt;li&gt;Motorola : www.onsemi.com
&lt;li&gt;Fairchild : www.fairchildsemi.com
&lt;li&gt;Philips : www.semiconductors.com
&lt;li&gt;Vishay : www.vishay.de
&lt;/ul&gt;
&lt;author&gt;Created by librarian@cadsoft.de&lt;/author&gt;</description>
<packages>
<package name="MICROMELF-R">
<description>&lt;b&gt;Micro Melf Diode Reflow soldering&lt;/b&gt; VISHAY mcl4148.pdf</description>
<wire x1="-0.65" y1="0.55" x2="0.65" y2="0.55" width="0.1524" layer="51"/>
<wire x1="-0.65" y1="-0.55" x2="0.65" y2="-0.55" width="0.1524" layer="51"/>
<smd name="C" x="-0.8" y="0" dx="0.8" dy="1.2" layer="1"/>
<smd name="A" x="0.8" y="0" dx="0.8" dy="1.2" layer="1"/>
<text x="-1.201" y="0.843" size="1.27" layer="25">&gt;NAME</text>
<text x="-1.201" y="-2.063" size="1.27" layer="27">&gt;VALUE</text>
<rectangle x1="-0.95" y1="-0.65" x2="-0.65" y2="0.65" layer="51"/>
<rectangle x1="0.65" y1="-0.65" x2="0.95" y2="0.65" layer="51"/>
<rectangle x1="-0.5" y1="-0.55" x2="-0.2" y2="0.55" layer="51"/>
</package>
</packages>
</library>
<library name="transistor-small-signal">
<description>&lt;b&gt;Small Signal Transistors&lt;/b&gt;&lt;p&gt;
Packages from :&lt;br&gt;
www.infineon.com; &lt;br&gt;
www.semiconductors.com;&lt;br&gt;
www.irf.com&lt;p&gt;
&lt;author&gt;Created by librarian@cadsoft.de&lt;/author&gt;</description>
<packages>
<package name="SOT23">
<description>&lt;b&gt;SOT-23&lt;/b&gt;</description>
<wire x1="1.4224" y1="0.6604" x2="1.4224" y2="-0.6604" width="0.1524" layer="51"/>
<wire x1="1.4224" y1="-0.6604" x2="-1.4224" y2="-0.6604" width="0.1524" layer="51"/>
<wire x1="-1.4224" y1="-0.6604" x2="-1.4224" y2="0.6604" width="0.1524" layer="51"/>
<wire x1="-1.4224" y1="0.6604" x2="1.4224" y2="0.6604" width="0.1524" layer="51"/>
<smd name="3" x="0" y="1.1" dx="1" dy="1.4" layer="1"/>
<smd name="2" x="0.95" y="-1.1" dx="1" dy="1.4" layer="1"/>
<smd name="1" x="-0.95" y="-1.1" dx="1" dy="1.4" layer="1"/>
<text x="-1.905" y="1.905" size="1.27" layer="25">&gt;NAME</text>
<text x="-1.905" y="-3.175" size="1.27" layer="27">&gt;VALUE</text>
<rectangle x1="-0.2286" y1="0.7112" x2="0.2286" y2="1.2954" layer="51"/>
<rectangle x1="0.7112" y1="-1.2954" x2="1.1684" y2="-0.7112" layer="51"/>
<rectangle x1="-1.1684" y1="-1.2954" x2="-0.7112" y2="-0.7112" layer="51"/>
</package>
</packages>
</library>
<library name="rcl">
<description>&lt;b&gt;Resistors, Capacitors, Inductors&lt;/b&gt;&lt;p&gt;
Based on the previous libraries:
&lt;ul&gt;
&lt;li&gt;r.lbr
&lt;li&gt;cap.lbr 
&lt;li&gt;cap-fe.lbr
&lt;li&gt;captant.lbr
&lt;li&gt;polcap.lbr
&lt;li&gt;ipc-smd.lbr
&lt;/ul&gt;
All SMD packages are defined according to the IPC specifications and  CECC&lt;p&gt;
&lt;author&gt;Created by librarian@cadsoft.de&lt;/author&gt;&lt;p&gt;
&lt;p&gt;
for Electrolyt Capacitors see also :&lt;p&gt;
www.bccomponents.com &lt;p&gt;
www.panasonic.com&lt;p&gt;
www.kemet.com&lt;p&gt;
http://www.secc.co.jp/pdf/os_e/2004/e_os_all.pdf &lt;b&gt;(SANYO)&lt;/b&gt;
&lt;p&gt;
for trimmer refence see : &lt;u&gt;www.electrospec-inc.com/cross_references/trimpotcrossref.asp&lt;/u&gt;&lt;p&gt;

&lt;table border=0 cellspacing=0 cellpadding=0 width="100%" cellpaddding=0&gt;
&lt;tr valign="top"&gt;

&lt;! &lt;td width="10"&gt;&amp;nbsp;&lt;/td&gt;
&lt;td width="90%"&gt;

&lt;b&gt;&lt;font color="#0000FF" size="4"&gt;TRIM-POT CROSS REFERENCE&lt;/font&gt;&lt;/b&gt;
&lt;P&gt;
&lt;TABLE BORDER=0 CELLSPACING=1 CELLPADDING=2&gt;
  &lt;TR&gt;
    &lt;TD COLSPAN=8&gt;
      &lt;FONT SIZE=3 FACE=ARIAL&gt;&lt;B&gt;RECTANGULAR MULTI-TURN&lt;/B&gt;&lt;/FONT&gt;
    &lt;/TD&gt;
  &lt;/TR&gt;
  &lt;TR&gt;
    &lt;TD ALIGN=CENTER&gt;
      &lt;B&gt;
      &lt;FONT SIZE=3 FACE=ARIAL color="#FF0000"&gt;BOURNS&lt;/FONT&gt;
      &lt;/B&gt;
    &lt;/TD&gt;
    &lt;TD ALIGN=CENTER&gt;
      &lt;B&gt;
      &lt;FONT SIZE=3 FACE=ARIAL color="#FF0000"&gt;BI&amp;nbsp;TECH&lt;/FONT&gt;
      &lt;/B&gt;
    &lt;/TD&gt;
    &lt;TD ALIGN=CENTER&gt;
      &lt;B&gt;
      &lt;FONT SIZE=3 FACE=ARIAL color="#FF0000"&gt;DALE-VISHAY&lt;/FONT&gt;
      &lt;/B&gt;
    &lt;/TD&gt;
    &lt;TD ALIGN=CENTER&gt;
      &lt;B&gt;
      &lt;FONT SIZE=3 FACE=ARIAL color="#FF0000"&gt;PHILIPS/MEPCO&lt;/FONT&gt;
      &lt;/B&gt;
    &lt;/TD&gt;
    &lt;TD ALIGN=CENTER&gt;
      &lt;B&gt;
      &lt;FONT SIZE=3 FACE=ARIAL color="#FF0000"&gt;MURATA&lt;/FONT&gt;
      &lt;/B&gt;
    &lt;/TD&gt;
    &lt;TD ALIGN=CENTER&gt;
      &lt;B&gt;
      &lt;FONT SIZE=3 FACE=ARIAL color="#FF0000"&gt;PANASONIC&lt;/FONT&gt;
      &lt;/B&gt;
    &lt;/TD&gt;
    &lt;TD ALIGN=CENTER&gt;
      &lt;B&gt;
      &lt;FONT SIZE=3 FACE=ARIAL color="#FF0000"&gt;SPECTROL&lt;/FONT&gt;
      &lt;/B&gt;
    &lt;/TD&gt;
    &lt;TD ALIGN=CENTER&gt;
      &lt;B&gt;
      &lt;FONT SIZE=3 FACE=ARIAL color="#FF0000"&gt;MILSPEC&lt;/FONT&gt;
      &lt;/B&gt;
    &lt;/TD&gt;&lt;TD&gt;&amp;nbsp;&lt;/TD&gt;
  &lt;/TR&gt;
  &lt;TR&gt;
    &lt;TD BGCOLOR="#cccccc" ALIGN=CENTER&gt;&lt;FONT FACE=ARIAL SIZE=3 &gt;
      3005P&lt;BR&gt;
      3006P&lt;BR&gt;
      3006W&lt;BR&gt;
      3006Y&lt;BR&gt;
      3009P&lt;BR&gt;
      3009W&lt;BR&gt;
      3009Y&lt;BR&gt;
      3057J&lt;BR&gt;
      3057L&lt;BR&gt;
      3057P&lt;BR&gt;
      3057Y&lt;BR&gt;
      3059J&lt;BR&gt;
      3059L&lt;BR&gt;
      3059P&lt;BR&gt;
      3059Y&lt;BR&gt;&lt;/FONT&gt;
    &lt;/TD&gt;
    &lt;TD BGCOLOR="#cccccc" ALIGN=CENTER&gt;&lt;FONT FACE=ARIAL SIZE=3&gt;
      -&lt;BR&gt;
      89P&lt;BR&gt;
      89W&lt;BR&gt;
      89X&lt;BR&gt;
      89PH&lt;BR&gt;
      76P&lt;BR&gt;
      89XH&lt;BR&gt;
      78SLT&lt;BR&gt;
      78L&amp;nbsp;ALT&lt;BR&gt;
      56P&amp;nbsp;ALT&lt;BR&gt;
      78P&amp;nbsp;ALT&lt;BR&gt;
      T8S&lt;BR&gt;
      78L&lt;BR&gt;
      56P&lt;BR&gt;
      78P&lt;BR&gt;&lt;/FONT&gt;
    &lt;/TD&gt;
    &lt;TD BGCOLOR="#cccccc" ALIGN=CENTER&gt;&lt;FONT FACE=ARIAL SIZE=3&gt;
      -&lt;BR&gt;
      T18/784&lt;BR&gt;
      783&lt;BR&gt;
      781&lt;BR&gt;
      -&lt;BR&gt;
      -&lt;BR&gt;
      -&lt;BR&gt;
      2199&lt;BR&gt;
      1697/1897&lt;BR&gt;
      1680/1880&lt;BR&gt;
      2187&lt;BR&gt;
      -&lt;BR&gt;
      -&lt;BR&gt;
      -&lt;BR&gt;
      -&lt;BR&gt;&lt;/FONT&gt;
    &lt;/TD&gt;
    &lt;TD BGCOLOR="#cccccc" ALIGN=CENTER&gt;&lt;FONT FACE=ARIAL SIZE=3&gt;
      -&lt;BR&gt;
      8035EKP/CT20/RJ-20P&lt;BR&gt;
      -&lt;BR&gt;
      RJ-20X&lt;BR&gt;
      -&lt;BR&gt;
      -&lt;BR&gt;
      -&lt;BR&gt;
      1211L&lt;BR&gt;
      8012EKQ&amp;nbsp;ALT&lt;BR&gt;
      8012EKR&amp;nbsp;ALT&lt;BR&gt;
      1211P&lt;BR&gt;
      8012EKJ&lt;BR&gt;
      8012EKL&lt;BR&gt;
      8012EKQ&lt;BR&gt;
      8012EKR&lt;BR&gt;&lt;/FONT&gt;
    &lt;/TD&gt;
    &lt;TD BGCOLOR="#cccccc" ALIGN=CENTER&gt;&lt;FONT FACE=ARIAL SIZE=3&gt;
      -&lt;BR&gt;
      2101P&lt;BR&gt;
      2101W&lt;BR&gt;
      2101Y&lt;BR&gt;
      -&lt;BR&gt;
      -&lt;BR&gt;
      -&lt;BR&gt;
      -&lt;BR&gt;
      -&lt;BR&gt;
      -&lt;BR&gt;
      -&lt;BR&gt;
      -&lt;BR&gt;
      2102L&lt;BR&gt;
      2102S&lt;BR&gt;
      2102Y&lt;BR&gt;&lt;/FONT&gt;
    &lt;/TD&gt;
    &lt;TD BGCOLOR="#cccccc" ALIGN=CENTER&gt;&lt;FONT FACE=ARIAL SIZE=3&gt;
      -&lt;BR&gt;
      EVMCOG&lt;BR&gt;
      -&lt;BR&gt;
      -&lt;BR&gt;
      -&lt;BR&gt;
      -&lt;BR&gt;
      -&lt;BR&gt;
      -&lt;BR&gt;
      -&lt;BR&gt;
      -&lt;BR&gt;
      -&lt;BR&gt;
      -&lt;BR&gt;
      -&lt;BR&gt;
      -&lt;BR&gt;
      -&lt;BR&gt;&lt;/FONT&gt;
    &lt;/TD&gt;
    &lt;TD BGCOLOR="#cccccc" ALIGN=CENTER&gt;&lt;FONT FACE=ARIAL SIZE=3&gt;
      -&lt;BR&gt;
      43P&lt;BR&gt;
      43W&lt;BR&gt;
      43Y&lt;BR&gt;
      -&lt;BR&gt;
      -&lt;BR&gt;
      -&lt;BR&gt;
      -&lt;BR&gt;
      40L&lt;BR&gt;
      40P&lt;BR&gt;
      40Y&lt;BR&gt;
      70Y-T602&lt;BR&gt;
      70L&lt;BR&gt;
      70P&lt;BR&gt;
      70Y&lt;BR&gt;&lt;/FONT&gt;
    &lt;/TD&gt;
    &lt;TD BGCOLOR="#cccccc" ALIGN=CENTER&gt;&lt;FONT FACE=ARIAL SIZE=3&gt;
      -&lt;BR&gt;
      -&lt;BR&gt;
      -&lt;BR&gt;
      -&lt;BR&gt;
      -&lt;BR&gt;
      -&lt;BR&gt;
      -&lt;BR&gt;
      -&lt;BR&gt;
      RT/RTR12&lt;BR&gt;
      RT/RTR12&lt;BR&gt;
      RT/RTR12&lt;BR&gt;
      -&lt;BR&gt;
      RJ/RJR12&lt;BR&gt;
      RJ/RJR12&lt;BR&gt;
      RJ/RJR12&lt;BR&gt;&lt;/FONT&gt;
    &lt;/TD&gt;
  &lt;/TR&gt;
  &lt;TR&gt;
    &lt;TD COLSPAN=8&gt;&amp;nbsp;
    &lt;/TD&gt;
  &lt;/TR&gt;
  &lt;TR&gt;
    &lt;TD COLSPAN=8&gt;
      &lt;FONT SIZE=4 FACE=ARIAL&gt;&lt;B&gt;SQUARE MULTI-TURN&lt;/B&gt;&lt;/FONT&gt;
    &lt;/TD&gt;
  &lt;/TR&gt;
  &lt;TR&gt;
   &lt;TD ALIGN=CENTER&gt;
      &lt;FONT SIZE=3 FACE=ARIAL&gt;&lt;B&gt;BOURN&lt;/B&gt;&lt;/FONT&gt;
    &lt;/TD&gt;
    &lt;TD ALIGN=CENTER&gt;
      &lt;FONT SIZE=3 FACE=ARIAL&gt;&lt;B&gt;BI&amp;nbsp;TECH&lt;/B&gt;&lt;/FONT&gt;
    &lt;/TD&gt;
    &lt;TD ALIGN=CENTER&gt;
      &lt;FONT SIZE=3 FACE=ARIAL&gt;&lt;B&gt;DALE-VISHAY&lt;/B&gt;&lt;/FONT&gt;
    &lt;/TD&gt;
    &lt;TD ALIGN=CENTER&gt;
      &lt;FONT SIZE=3 FACE=ARIAL&gt;&lt;B&gt;PHILIPS/MEPCO&lt;/B&gt;&lt;/FONT&gt;
    &lt;/TD&gt;
    &lt;TD ALIGN=CENTER&gt;
      &lt;FONT SIZE=3 FACE=ARIAL&gt;&lt;B&gt;MURATA&lt;/B&gt;&lt;/FONT&gt;
    &lt;/TD&gt;
    &lt;TD ALIGN=CENTER&gt;
      &lt;FONT SIZE=3 FACE=ARIAL&gt;&lt;B&gt;PANASONIC&lt;/B&gt;&lt;/FONT&gt;
    &lt;/TD&gt;
    &lt;TD ALIGN=CENTER&gt;
      &lt;FONT SIZE=3 FACE=ARIAL&gt;&lt;B&gt;SPECTROL&lt;/B&gt;&lt;/FONT&gt;
    &lt;/TD&gt;
    &lt;TD ALIGN=CENTER&gt;
      &lt;FONT SIZE=3 FACE=ARIAL&gt;&lt;B&gt;MILSPEC&lt;/B&gt;&lt;/FONT&gt;
    &lt;/TD&gt;
  &lt;/TR&gt;
  &lt;TR&gt;
    &lt;TD BGCOLOR="#cccccc" ALIGN=CENTER&gt;&lt;FONT FACE=ARIAL SIZE=3&gt;
      3250L&lt;BR&gt;
      3250P&lt;BR&gt;
      3250W&lt;BR&gt;
      3250X&lt;BR&gt;
      3252P&lt;BR&gt;
      3252W&lt;BR&gt;
      3252X&lt;BR&gt;
      3260P&lt;BR&gt;
      3260W&lt;BR&gt;
      3260X&lt;BR&gt;
      3262P&lt;BR&gt;
      3262W&lt;BR&gt;
      3262X&lt;BR&gt;
      3266P&lt;BR&gt;
      3266W&lt;BR&gt;
      3266X&lt;BR&gt;
      3290H&lt;BR&gt;
      3290P&lt;BR&gt;
      3290W&lt;BR&gt;
      3292P&lt;BR&gt;
      3292W&lt;BR&gt;
      3292X&lt;BR&gt;
      3296P&lt;BR&gt;
      3296W&lt;BR&gt;
      3296X&lt;BR&gt;
      3296Y&lt;BR&gt;
      3296Z&lt;BR&gt;
      3299P&lt;BR&gt;
      3299W&lt;BR&gt;
      3299X&lt;BR&gt;
      3299Y&lt;BR&gt;
      3299Z&lt;BR&gt;&lt;/FONT&gt;
    &lt;/TD&gt;
    &lt;TD BGCOLOR="#cccccc" ALIGN=CENTER&gt;&lt;FONT FACE=ARIAL SIZE=3&gt;
      -&lt;BR&gt;
      66P&amp;nbsp;ALT&lt;BR&gt;
      66W&amp;nbsp;ALT&lt;BR&gt;
      66X&amp;nbsp;ALT&lt;BR&gt;
      66P&amp;nbsp;ALT&lt;BR&gt;
      66W&amp;nbsp;ALT&lt;BR&gt;
      66X&amp;nbsp;ALT&lt;BR&gt;
      -&lt;BR&gt;
      64W&amp;nbsp;ALT&lt;BR&gt;
      -&lt;BR&gt;
      64P&amp;nbsp;ALT&lt;BR&gt;
      64W&amp;nbsp;ALT&lt;BR&gt;
      64X&amp;nbsp;ALT&lt;BR&gt;
      64P&lt;BR&gt;
      64W&lt;BR&gt;
      64X&lt;BR&gt;
      66X&amp;nbsp;ALT&lt;BR&gt;
      66P&amp;nbsp;ALT&lt;BR&gt;
      66W&amp;nbsp;ALT&lt;BR&gt;
      66P&lt;BR&gt;
      66W&lt;BR&gt;
      66X&lt;BR&gt;
      67P&lt;BR&gt;
      67W&lt;BR&gt;
      67X&lt;BR&gt;
      67Y&lt;BR&gt;
      67Z&lt;BR&gt;
      68P&lt;BR&gt;
      68W&lt;BR&gt;
      68X&lt;BR&gt;
      67Y&amp;nbsp;ALT&lt;BR&gt;
      67Z&amp;nbsp;ALT&lt;BR&gt;&lt;/FONT&gt;
    &lt;/TD&gt;
    &lt;TD BGCOLOR="#cccccc" ALIGN=CENTER&gt;&lt;FONT FACE=ARIAL SIZE=3&gt;
      5050&lt;BR&gt;
      5091&lt;BR&gt;
      5080&lt;BR&gt;
      5087&lt;BR&gt;
      -&lt;BR&gt;
      -&lt;BR&gt;
      -&lt;BR&gt;
      -&lt;BR&gt;
      -&lt;BR&gt;
      -&lt;BR&gt;
      -&lt;BR&gt;
      T63YB&lt;BR&gt;
      T63XB&lt;BR&gt;
      -&lt;BR&gt;
      -&lt;BR&gt;
      -&lt;BR&gt;
      5887&lt;BR&gt;
      5891&lt;BR&gt;
      5880&lt;BR&gt;
      -&lt;BR&gt;
      -&lt;BR&gt;
      -&lt;BR&gt;
      T93Z&lt;BR&gt;
      T93YA&lt;BR&gt;
      T93XA&lt;BR&gt;
      T93YB&lt;BR&gt;
      T93XB&lt;BR&gt;
      -&lt;BR&gt;
      -&lt;BR&gt;
      -&lt;BR&gt;
      -&lt;BR&gt;
      -&lt;BR&gt;&lt;/FONT&gt;
    &lt;/TD&gt;
    &lt;TD BGCOLOR="#cccccc" ALIGN=CENTER&gt;&lt;FONT FACE=ARIAL SIZE=3&gt;
      -&lt;BR&gt;
      -&lt;BR&gt;
      -&lt;BR&gt;
      -&lt;BR&gt;
      -&lt;BR&gt;
      -&lt;BR&gt;
      -&lt;BR&gt;
      -&lt;BR&gt;
      -&lt;BR&gt;
      -&lt;BR&gt;
      8026EKP&lt;BR&gt;
      8026EKW&lt;BR&gt;
      8026EKM&lt;BR&gt;
      8026EKP&lt;BR&gt;
      8026EKB&lt;BR&gt;
      8026EKM&lt;BR&gt;
      1309X&lt;BR&gt;
      1309P&lt;BR&gt;
      1309W&lt;BR&gt;
      8024EKP&lt;BR&gt;
      8024EKW&lt;BR&gt;
      8024EKN&lt;BR&gt;
      RJ-9P/CT9P&lt;BR&gt;
      RJ-9W&lt;BR&gt;
      RJ-9X&lt;BR&gt;
      -&lt;BR&gt;
      -&lt;BR&gt;
      -&lt;BR&gt;
      -&lt;BR&gt;
      -&lt;BR&gt;
      -&lt;BR&gt;
      -&lt;BR&gt;&lt;/FONT&gt;
    &lt;/TD&gt;
    &lt;TD BGCOLOR="#cccccc" ALIGN=CENTER&gt;&lt;FONT FACE=ARIAL SIZE=3&gt;
      -&lt;BR&gt;
      -&lt;BR&gt;
      -&lt;BR&gt;
      -&lt;BR&gt;
      -&lt;BR&gt;
      -&lt;BR&gt;
      -&lt;BR&gt;
      -&lt;BR&gt;
      -&lt;BR&gt;
      -&lt;BR&gt;
      3103P&lt;BR&gt;
      3103Y&lt;BR&gt;
      3103Z&lt;BR&gt;
      3103P&lt;BR&gt;
      3103Y&lt;BR&gt;
      3103Z&lt;BR&gt;
      -&lt;BR&gt;
      -&lt;BR&gt;
      -&lt;BR&gt;
      -&lt;BR&gt;
      -&lt;BR&gt;
      -&lt;BR&gt;
      3105P/3106P&lt;BR&gt;
      3105W/3106W&lt;BR&gt;
      3105X/3106X&lt;BR&gt;
      3105Y/3106Y&lt;BR&gt;
      3105Z/3105Z&lt;BR&gt;
      3102P&lt;BR&gt;
      3102W&lt;BR&gt;
      3102X&lt;BR&gt;
      3102Y&lt;BR&gt;
      3102Z&lt;BR&gt;&lt;/FONT&gt;
    &lt;/TD&gt;
    &lt;TD BGCOLOR="#cccccc" ALIGN=CENTER&gt;&lt;FONT FACE=ARIAL SIZE=3&gt;
      -&lt;BR&gt;
      -&lt;BR&gt;
      -&lt;BR&gt;
      -&lt;BR&gt;
      -&lt;BR&gt;
      -&lt;BR&gt;
      -&lt;BR&gt;
      -&lt;BR&gt;
      -&lt;BR&gt;
      -&lt;BR&gt;
      -&lt;BR&gt;
      -&lt;BR&gt;
      -&lt;BR&gt;
      -&lt;BR&gt;
      -&lt;BR&gt;
      -&lt;BR&gt;
      -&lt;BR&gt;
      -&lt;BR&gt;
      -&lt;BR&gt;
      -&lt;BR&gt;
      -&lt;BR&gt;
      -&lt;BR&gt;
      EVMCBG&lt;BR&gt;
      EVMCCG&lt;BR&gt;
      -&lt;BR&gt;
      -&lt;BR&gt;
      -&lt;BR&gt;
      -&lt;BR&gt;
      -&lt;BR&gt;
      -&lt;BR&gt;
      -&lt;BR&gt;
      -&lt;BR&gt;&lt;/FONT&gt;
    &lt;/TD&gt;
    &lt;TD BGCOLOR="#cccccc" ALIGN=CENTER&gt;&lt;FONT FACE=ARIAL SIZE=3&gt;
      55-1-X&lt;BR&gt;
      55-4-X&lt;BR&gt;
      55-3-X&lt;BR&gt;
      55-2-X&lt;BR&gt;
      -&lt;BR&gt;
      -&lt;BR&gt;
      -&lt;BR&gt;
      -&lt;BR&gt;
      -&lt;BR&gt;
      -&lt;BR&gt;
      -&lt;BR&gt;
      -&lt;BR&gt;
      -&lt;BR&gt;
      -&lt;BR&gt;
      -&lt;BR&gt;
      -&lt;BR&gt;
      50-2-X&lt;BR&gt;
      50-4-X&lt;BR&gt;
      50-3-X&lt;BR&gt;
      -&lt;BR&gt;
      -&lt;BR&gt;
      -&lt;BR&gt;
      64P&lt;BR&gt;
      64W&lt;BR&gt;
      64X&lt;BR&gt;
      64Y&lt;BR&gt;
      64Z&lt;BR&gt;
      -&lt;BR&gt;
      -&lt;BR&gt;
      -&lt;BR&gt;
      -&lt;BR&gt;
      -&lt;BR&gt;&lt;/FONT&gt;
    &lt;/TD&gt;
    &lt;TD BGCOLOR="#cccccc" ALIGN=CENTER&gt;&lt;FONT FACE=ARIAL SIZE=3&gt;
      RT/RTR22&lt;BR&gt;
      RT/RTR22&lt;BR&gt;
      RT/RTR22&lt;BR&gt;
      RT/RTR22&lt;BR&gt;
      RJ/RJR22&lt;BR&gt;
      RJ/RJR22&lt;BR&gt;
      RJ/RJR22&lt;BR&gt;
      RT/RTR26&lt;BR&gt;
      RT/RTR26&lt;BR&gt;
      RT/RTR26&lt;BR&gt;
      RJ/RJR26&lt;BR&gt;
      RJ/RJR26&lt;BR&gt;
      RJ/RJR26&lt;BR&gt;
      RJ/RJR26&lt;BR&gt;
      RJ/RJR26&lt;BR&gt;
      RJ/RJR26&lt;BR&gt;
      RT/RTR24&lt;BR&gt;
      RT/RTR24&lt;BR&gt;
      RT/RTR24&lt;BR&gt;
      RJ/RJR24&lt;BR&gt;
      RJ/RJR24&lt;BR&gt;
      RJ/RJR24&lt;BR&gt;
      RJ/RJR24&lt;BR&gt;
      RJ/RJR24&lt;BR&gt;
      RJ/RJR24&lt;BR&gt;
      -&lt;BR&gt;
      -&lt;BR&gt;
      -&lt;BR&gt;
      -&lt;BR&gt;
      -&lt;BR&gt;
      -&lt;BR&gt;
      -&lt;BR&gt;&lt;/FONT&gt;
    &lt;/TD&gt;
  &lt;/TR&gt;
  &lt;TR&gt;
    &lt;TD COLSPAN=8&gt;&amp;nbsp;
    &lt;/TD&gt;
  &lt;/TR&gt;
  &lt;TR&gt;
    &lt;TD COLSPAN=8&gt;
      &lt;FONT SIZE=4 FACE=ARIAL&gt;&lt;B&gt;SINGLE TURN&lt;/B&gt;&lt;/FONT&gt;
    &lt;/TD&gt;
  &lt;/TR&gt;
  &lt;TR&gt;
    &lt;TD ALIGN=CENTER&gt;
      &lt;FONT SIZE=3 FACE=ARIAL&gt;&lt;B&gt;BOURN&lt;/B&gt;&lt;/FONT&gt;
    &lt;/TD&gt;
    &lt;TD ALIGN=CENTER&gt;
      &lt;FONT SIZE=3 FACE=ARIAL&gt;&lt;B&gt;BI&amp;nbsp;TECH&lt;/B&gt;&lt;/FONT&gt;
    &lt;/TD&gt;
    &lt;TD ALIGN=CENTER&gt;
      &lt;FONT SIZE=3 FACE=ARIAL&gt;&lt;B&gt;DALE-VISHAY&lt;/B&gt;&lt;/FONT&gt;
    &lt;/TD&gt;
    &lt;TD ALIGN=CENTER&gt;
      &lt;FONT SIZE=3 FACE=ARIAL&gt;&lt;B&gt;PHILIPS/MEPCO&lt;/B&gt;&lt;/FONT&gt;
    &lt;/TD&gt;
    &lt;TD ALIGN=CENTER&gt;
      &lt;FONT SIZE=3 FACE=ARIAL&gt;&lt;B&gt;MURATA&lt;/B&gt;&lt;/FONT&gt;
    &lt;/TD&gt;
    &lt;TD ALIGN=CENTER&gt;
      &lt;FONT SIZE=3 FACE=ARIAL&gt;&lt;B&gt;PANASONIC&lt;/B&gt;&lt;/FONT&gt;
    &lt;/TD&gt;
    &lt;TD ALIGN=CENTER&gt;
      &lt;FONT SIZE=3 FACE=ARIAL&gt;&lt;B&gt;SPECTROL&lt;/B&gt;&lt;/FONT&gt;
    &lt;/TD&gt;
    &lt;TD ALIGN=CENTER&gt;
      &lt;FONT SIZE=3 FACE=ARIAL&gt;&lt;B&gt;MILSPEC&lt;/B&gt;&lt;/FONT&gt;
    &lt;/TD&gt;
  &lt;/TR&gt;
  &lt;TR&gt;
    &lt;TD BGCOLOR="#cccccc" ALIGN=CENTER&gt;&lt;FONT FACE=ARIAL SIZE=3&gt;
      3323P&lt;BR&gt;
      3323S&lt;BR&gt;
      3323W&lt;BR&gt;
      3329H&lt;BR&gt;
      3329P&lt;BR&gt;
      3329W&lt;BR&gt;
      3339H&lt;BR&gt;
      3339P&lt;BR&gt;
      3339W&lt;BR&gt;
      3352E&lt;BR&gt;
      3352H&lt;BR&gt;
      3352K&lt;BR&gt;
      3352P&lt;BR&gt;
      3352T&lt;BR&gt;
      3352V&lt;BR&gt;
      3352W&lt;BR&gt;
      3362H&lt;BR&gt;
      3362M&lt;BR&gt;
      3362P&lt;BR&gt;
      3362R&lt;BR&gt;
      3362S&lt;BR&gt;
      3362U&lt;BR&gt;
      3362W&lt;BR&gt;
      3362X&lt;BR&gt;
      3386B&lt;BR&gt;
      3386C&lt;BR&gt;
      3386F&lt;BR&gt;
      3386H&lt;BR&gt;
      3386K&lt;BR&gt;
      3386M&lt;BR&gt;
      3386P&lt;BR&gt;
      3386S&lt;BR&gt;
      3386W&lt;BR&gt;
      3386X&lt;BR&gt;&lt;/FONT&gt;
    &lt;/TD&gt;
    &lt;TD BGCOLOR="#cccccc" ALIGN=CENTER&gt;&lt;FONT FACE=ARIAL SIZE=3&gt;
      25P&lt;BR&gt;
      25S&lt;BR&gt;
      25RX&lt;BR&gt;
      82P&lt;BR&gt;
      82M&lt;BR&gt;
      82PA&lt;BR&gt;
      -&lt;BR&gt;
      -&lt;BR&gt;
      -&lt;BR&gt;
      91E&lt;BR&gt;
      91X&lt;BR&gt;
      91T&lt;BR&gt;
      91B&lt;BR&gt;
      91A&lt;BR&gt;
      91V&lt;BR&gt;
      91W&lt;BR&gt;
      25W&lt;BR&gt;
      25V&lt;BR&gt;
      25P&lt;BR&gt;
      -&lt;BR&gt;
      25S&lt;BR&gt;
      25U&lt;BR&gt;
      25RX&lt;BR&gt;
      25X&lt;BR&gt;
      72XW&lt;BR&gt;
      72XL&lt;BR&gt;
      72PM&lt;BR&gt;
      72RX&lt;BR&gt;
      -&lt;BR&gt;
      72PX&lt;BR&gt;
      72P&lt;BR&gt;
      72RXW&lt;BR&gt;
      72RXL&lt;BR&gt;
      72X&lt;BR&gt;&lt;/FONT&gt;
    &lt;/TD&gt;
    &lt;TD BGCOLOR="#cccccc" ALIGN=CENTER&gt;&lt;FONT FACE=ARIAL SIZE=3&gt;
      -&lt;BR&gt;
      -&lt;BR&gt;
      -&lt;BR&gt;
      T7YB&lt;BR&gt;
      T7YA&lt;BR&gt;
      -&lt;BR&gt;
      -&lt;BR&gt;
      -&lt;BR&gt;
      -&lt;BR&gt;
      -&lt;BR&gt;
      -&lt;BR&gt;
      -&lt;BR&gt;
      -&lt;BR&gt;
      -&lt;BR&gt;
      -&lt;BR&gt;
      -&lt;BR&gt;
      -&lt;BR&gt;
      TXD&lt;BR&gt;
      TYA&lt;BR&gt;
      TYP&lt;BR&gt;
      -&lt;BR&gt;
      TYD&lt;BR&gt;
      TX&lt;BR&gt;
      -&lt;BR&gt;
      150SX&lt;BR&gt;
      100SX&lt;BR&gt;
      102T&lt;BR&gt;
      101S&lt;BR&gt;
      190T&lt;BR&gt;
      150TX&lt;BR&gt;
      101&lt;BR&gt;
      -&lt;BR&gt;
      -&lt;BR&gt;
      101SX&lt;BR&gt;&lt;/FONT&gt;
    &lt;/TD&gt;
    &lt;TD BGCOLOR="#cccccc" ALIGN=CENTER&gt;&lt;FONT FACE=ARIAL SIZE=3&gt;
      ET6P&lt;BR&gt;
      ET6S&lt;BR&gt;
      ET6X&lt;BR&gt;
      RJ-6W/8014EMW&lt;BR&gt;
      RJ-6P/8014EMP&lt;BR&gt;
      RJ-6X/8014EMX&lt;BR&gt;
      TM7W&lt;BR&gt;
      TM7P&lt;BR&gt;
      TM7X&lt;BR&gt;
      -&lt;BR&gt;
      8017SMS&lt;BR&gt;
      -&lt;BR&gt;
      8017SMB&lt;BR&gt;
      8017SMA&lt;BR&gt;
      -&lt;BR&gt;
      -&lt;BR&gt;
      CT-6W&lt;BR&gt;
      CT-6H&lt;BR&gt;
      CT-6P&lt;BR&gt;
      CT-6R&lt;BR&gt;
      -&lt;BR&gt;
      CT-6V&lt;BR&gt;
      CT-6X&lt;BR&gt;
      -&lt;BR&gt;
      -&lt;BR&gt;
      8038EKV&lt;BR&gt;
      -&lt;BR&gt;
      8038EKX&lt;BR&gt;
      -&lt;BR&gt;
      -&lt;BR&gt;
      8038EKP&lt;BR&gt;
      8038EKZ&lt;BR&gt;
      8038EKW&lt;BR&gt;
      -&lt;BR&gt;&lt;/FONT&gt;
    &lt;/TD&gt;
    &lt;TD BGCOLOR="#cccccc" ALIGN=CENTER&gt;&lt;FONT FACE=ARIAL SIZE=3&gt;
      -&lt;BR&gt;
      -&lt;BR&gt;
      -&lt;BR&gt;
      3321H&lt;BR&gt;
      3321P&lt;BR&gt;
      3321N&lt;BR&gt;
      1102H&lt;BR&gt;
      1102P&lt;BR&gt;
      1102T&lt;BR&gt;
      RVA0911V304A&lt;BR&gt;
      -&lt;BR&gt;
      RVA0911H413A&lt;BR&gt;
      RVG0707V100A&lt;BR&gt;
      RVA0607V(H)306A&lt;BR&gt;
      RVA1214H213A&lt;BR&gt;
      -&lt;BR&gt;
      -&lt;BR&gt;
      -&lt;BR&gt;
      -&lt;BR&gt;
      -&lt;BR&gt;
      -&lt;BR&gt;
      -&lt;BR&gt;
      -&lt;BR&gt;
      -&lt;BR&gt;
      3104B&lt;BR&gt;
      3104C&lt;BR&gt;
      3104F&lt;BR&gt;
      3104H&lt;BR&gt;
      -&lt;BR&gt;
      3104M&lt;BR&gt;
      3104P&lt;BR&gt;
      3104S&lt;BR&gt;
      3104W&lt;BR&gt;
      3104X&lt;BR&gt;&lt;/FONT&gt;
    &lt;/TD&gt;
    &lt;TD BGCOLOR="#cccccc" ALIGN=CENTER&gt;&lt;FONT FACE=ARIAL SIZE=3&gt;
      EVMQ0G&lt;BR&gt;
      EVMQIG&lt;BR&gt;
      EVMQ3G&lt;BR&gt;
      EVMS0G&lt;BR&gt;
      EVMQ0G&lt;BR&gt;
      EVMG0G&lt;BR&gt;
      -&lt;BR&gt;
      -&lt;BR&gt;
      -&lt;BR&gt;
      EVMK4GA00B&lt;BR&gt;
      EVM30GA00B&lt;BR&gt;
      EVMK0GA00B&lt;BR&gt;
      EVM38GA00B&lt;BR&gt;
      EVMB6&lt;BR&gt;
      EVLQ0&lt;BR&gt;
      -&lt;BR&gt;
      EVMMSG&lt;BR&gt;
      EVMMBG&lt;BR&gt;
      EVMMAG&lt;BR&gt;
      -&lt;BR&gt;
      -&lt;BR&gt;
      EVMMCS&lt;BR&gt;
      -&lt;BR&gt;
      -&lt;BR&gt;
      -&lt;BR&gt;
      -&lt;BR&gt;
      -&lt;BR&gt;
      EVMM1&lt;BR&gt;
      -&lt;BR&gt;
      -&lt;BR&gt;
      EVMM0&lt;BR&gt;
      -&lt;BR&gt;
      -&lt;BR&gt;
      EVMM3&lt;BR&gt;&lt;/FONT&gt;
    &lt;/TD&gt;
    &lt;TD BGCOLOR="#cccccc" ALIGN=CENTER&gt;&lt;FONT FACE=ARIAL SIZE=3&gt;
      -&lt;BR&gt;
      -&lt;BR&gt;
      -&lt;BR&gt;
      62-3-1&lt;BR&gt;
      62-1-2&lt;BR&gt;
      -&lt;BR&gt;
      -&lt;BR&gt;
      -&lt;BR&gt;
      -&lt;BR&gt;
      -&lt;BR&gt;
      -&lt;BR&gt;
      -&lt;BR&gt;
      -&lt;BR&gt;
      -&lt;BR&gt;
      -&lt;BR&gt;
      -&lt;BR&gt;
      67R&lt;BR&gt;
      -&lt;BR&gt;
      67P&lt;BR&gt;
      -&lt;BR&gt;
      -&lt;BR&gt;
      -&lt;BR&gt;
      -&lt;BR&gt;
      67X&lt;BR&gt;
      63V&lt;BR&gt;
      63S&lt;BR&gt;
      63M&lt;BR&gt;
      -&lt;BR&gt;
      -&lt;BR&gt;
      63H&lt;BR&gt;
      63P&lt;BR&gt;
      -&lt;BR&gt;
      -&lt;BR&gt;
      63X&lt;BR&gt;&lt;/FONT&gt;
    &lt;/TD&gt;
    &lt;TD BGCOLOR="#cccccc" ALIGN=CENTER&gt;&lt;FONT FACE=ARIAL SIZE=3&gt;
      -&lt;BR&gt;
      -&lt;BR&gt;
      -&lt;BR&gt;
      RJ/RJR50&lt;BR&gt;
      RJ/RJR50&lt;BR&gt;
      RJ/RJR50&lt;BR&gt;
      -&lt;BR&gt;
      -&lt;BR&gt;
      -&lt;BR&gt;
      -&lt;BR&gt;
      -&lt;BR&gt;
      -&lt;BR&gt;
      -&lt;BR&gt;
      -&lt;BR&gt;
      -&lt;BR&gt;
      -&lt;BR&gt;
      -&lt;BR&gt;
      -&lt;BR&gt;
      -&lt;BR&gt;
      -&lt;BR&gt;
      -&lt;BR&gt;
      -&lt;BR&gt;
      -&lt;BR&gt;
      -&lt;BR&gt;
      -&lt;BR&gt;
      -&lt;BR&gt;
      -&lt;BR&gt;
      -&lt;BR&gt;
      -&lt;BR&gt;
      -&lt;BR&gt;
      -&lt;BR&gt;
      -&lt;BR&gt;
      -&lt;BR&gt;
      -&lt;BR&gt;&lt;/FONT&gt;
    &lt;/TD&gt;
  &lt;/TR&gt;
&lt;/TABLE&gt;
&lt;P&gt;&amp;nbsp;&lt;P&gt;
&lt;TABLE BORDER=0 CELLSPACING=1 CELLPADDING=3&gt;
  &lt;TR&gt;
    &lt;TD COLSPAN=7&gt;
      &lt;FONT color="#0000FF" SIZE=4 FACE=ARIAL&gt;&lt;B&gt;SMD TRIM-POT CROSS REFERENCE&lt;/B&gt;&lt;/FONT&gt;
      &lt;P&gt;
      &lt;FONT SIZE=4 FACE=ARIAL&gt;&lt;B&gt;MULTI-TURN&lt;/B&gt;&lt;/FONT&gt;
    &lt;/TD&gt;
  &lt;/TR&gt;
  &lt;TR&gt;
    &lt;TD&gt;
      &lt;FONT SIZE=3 FACE=ARIAL&gt;&lt;B&gt;BOURNS&lt;/B&gt;&lt;/FONT&gt;
    &lt;/TD&gt;
    &lt;TD&gt;
      &lt;FONT SIZE=3 FACE=ARIAL&gt;&lt;B&gt;BI&amp;nbsp;TECH&lt;/B&gt;&lt;/FONT&gt;
    &lt;/TD&gt;
    &lt;TD&gt;
      &lt;FONT SIZE=3 FACE=ARIAL&gt;&lt;B&gt;DALE-VISHAY&lt;/B&gt;&lt;/FONT&gt;
    &lt;/TD&gt;
    &lt;TD&gt;
      &lt;FONT SIZE=3 FACE=ARIAL&gt;&lt;B&gt;PHILIPS/MEPCO&lt;/B&gt;&lt;/FONT&gt;
    &lt;/TD&gt;
    &lt;TD&gt;
      &lt;FONT SIZE=3 FACE=ARIAL&gt;&lt;B&gt;PANASONIC&lt;/B&gt;&lt;/FONT&gt;
    &lt;/TD&gt;
    &lt;TD&gt;
      &lt;FONT SIZE=3 FACE=ARIAL&gt;&lt;B&gt;TOCOS&lt;/B&gt;&lt;/FONT&gt;
    &lt;/TD&gt;
    &lt;TD&gt;
      &lt;FONT SIZE=3 FACE=ARIAL&gt;&lt;B&gt;AUX/KYOCERA&lt;/B&gt;&lt;/FONT&gt;
    &lt;/TD&gt;
  &lt;/TR&gt;
  &lt;TR&gt;
    &lt;TD BGCOLOR="#cccccc" ALIGN=CENTER&gt;&lt;FONT FACE=ARIAL SIZE=3&gt;
      3224G&lt;BR&gt;
      3224J&lt;BR&gt;
      3224W&lt;BR&gt;
      3269P&lt;BR&gt;
      3269W&lt;BR&gt;
      3269X&lt;BR&gt;&lt;/FONT&gt;
    &lt;/TD&gt;
    &lt;TD BGCOLOR="#cccccc" ALIGN=CENTER&gt;&lt;FONT FACE=ARIAL SIZE=3&gt;
      44G&lt;BR&gt;
      44J&lt;BR&gt;
      44W&lt;BR&gt;
      84P&lt;BR&gt;
      84W&lt;BR&gt;
      84X&lt;BR&gt;&lt;/FONT&gt;
    &lt;/TD&gt;
    &lt;TD BGCOLOR="#cccccc" ALIGN=CENTER&gt;&lt;FONT FACE=ARIAL SIZE=3&gt;
      -&lt;BR&gt;
      -&lt;BR&gt;
      -&lt;BR&gt;
      ST63Z&lt;BR&gt;
      ST63Y&lt;BR&gt;
      -&lt;BR&gt;&lt;/FONT&gt;
    &lt;/TD&gt;
    &lt;TD BGCOLOR="#cccccc" ALIGN=CENTER&gt;&lt;FONT FACE=ARIAL SIZE=3&gt;
      -&lt;BR&gt;
      -&lt;BR&gt;
      -&lt;BR&gt;
      ST5P&lt;BR&gt;
      ST5W&lt;BR&gt;
      ST5X&lt;BR&gt;&lt;/FONT&gt;
    &lt;/TD&gt;
    &lt;TD BGCOLOR="#cccccc" ALIGN=CENTER&gt;&lt;FONT FACE=ARIAL SIZE=3&gt;
      -&lt;BR&gt;
      -&lt;BR&gt;
      -&lt;BR&gt;
      -&lt;BR&gt;
      -&lt;BR&gt;
      -&lt;BR&gt;&lt;/FONT&gt;
    &lt;/TD&gt;
    &lt;TD BGCOLOR="#cccccc" ALIGN=CENTER&gt;&lt;FONT FACE=ARIAL SIZE=3&gt;
      -&lt;BR&gt;
      -&lt;BR&gt;
      -&lt;BR&gt;
      -&lt;BR&gt;
      -&lt;BR&gt;
      -&lt;BR&gt;&lt;/FONT&gt;
    &lt;/TD&gt;
    &lt;TD BGCOLOR="#cccccc" ALIGN=CENTER&gt;&lt;FONT FACE=ARIAL SIZE=3&gt;
      -&lt;BR&gt;
      -&lt;BR&gt;
      -&lt;BR&gt;
      -&lt;BR&gt;
      -&lt;BR&gt;
      -&lt;BR&gt;&lt;/FONT&gt;
    &lt;/TD&gt;
  &lt;/TR&gt;
  &lt;TR&gt;
    &lt;TD COLSPAN=7&gt;&amp;nbsp;
    &lt;/TD&gt;
  &lt;/TR&gt;
  &lt;TR&gt;
    &lt;TD COLSPAN=7&gt;
      &lt;FONT SIZE=4 FACE=ARIAL&gt;&lt;B&gt;SINGLE TURN&lt;/B&gt;&lt;/FONT&gt;
    &lt;/TD&gt;
  &lt;/TR&gt;
  &lt;TR&gt;
    &lt;TD&gt;
      &lt;FONT SIZE=3 FACE=ARIAL&gt;&lt;B&gt;BOURNS&lt;/B&gt;&lt;/FONT&gt;
    &lt;/TD&gt;
    &lt;TD&gt;
      &lt;FONT SIZE=3 FACE=ARIAL&gt;&lt;B&gt;BI&amp;nbsp;TECH&lt;/B&gt;&lt;/FONT&gt;
    &lt;/TD&gt;
    &lt;TD&gt;
      &lt;FONT SIZE=3 FACE=ARIAL&gt;&lt;B&gt;DALE-VISHAY&lt;/B&gt;&lt;/FONT&gt;
    &lt;/TD&gt;
    &lt;TD&gt;
      &lt;FONT SIZE=3 FACE=ARIAL&gt;&lt;B&gt;PHILIPS/MEPCO&lt;/B&gt;&lt;/FONT&gt;
    &lt;/TD&gt;
    &lt;TD&gt;
      &lt;FONT SIZE=3 FACE=ARIAL&gt;&lt;B&gt;PANASONIC&lt;/B&gt;&lt;/FONT&gt;
    &lt;/TD&gt;
    &lt;TD&gt;
      &lt;FONT SIZE=3 FACE=ARIAL&gt;&lt;B&gt;TOCOS&lt;/B&gt;&lt;/FONT&gt;
    &lt;/TD&gt;
    &lt;TD&gt;
      &lt;FONT SIZE=3 FACE=ARIAL&gt;&lt;B&gt;AUX/KYOCERA&lt;/B&gt;&lt;/FONT&gt;
    &lt;/TD&gt;
  &lt;/TR&gt;
  &lt;TR&gt;
    &lt;TD BGCOLOR="#cccccc" ALIGN=CENTER&gt;&lt;FONT FACE=ARIAL SIZE=3&gt;
      3314G&lt;BR&gt;
      3314J&lt;BR&gt;
      3364A/B&lt;BR&gt;
      3364C/D&lt;BR&gt;
      3364W/X&lt;BR&gt;
      3313G&lt;BR&gt;
      3313J&lt;BR&gt;&lt;/FONT&gt;
    &lt;/TD&gt;
    &lt;TD BGCOLOR="#cccccc" ALIGN=CENTER&gt;&lt;FONT FACE=ARIAL SIZE=3&gt;
      23B&lt;BR&gt;
      23A&lt;BR&gt;
      21X&lt;BR&gt;
      21W&lt;BR&gt;
      -&lt;BR&gt;
      22B&lt;BR&gt;
      22A&lt;BR&gt;&lt;/FONT&gt;
    &lt;/TD&gt;
    &lt;TD BGCOLOR="#cccccc" ALIGN=CENTER&gt;&lt;FONT FACE=ARIAL SIZE=3&gt;
      ST5YL/ST53YL&lt;BR&gt;
      ST5YJ/5T53YJ&lt;BR&gt;
      ST-23A&lt;BR&gt;
      ST-22B&lt;BR&gt;
      ST-22&lt;BR&gt;
      -&lt;BR&gt;
      -&lt;BR&gt;&lt;/FONT&gt;
    &lt;/TD&gt;
    &lt;TD BGCOLOR="#cccccc" ALIGN=CENTER&gt;&lt;FONT FACE=ARIAL SIZE=3&gt;
      ST-4B&lt;BR&gt;
      ST-4A&lt;BR&gt;
      -&lt;BR&gt;
      -&lt;BR&gt;
      -&lt;BR&gt;
      ST-3B&lt;BR&gt;
      ST-3A&lt;BR&gt;&lt;/FONT&gt;
    &lt;/TD&gt;
    &lt;TD BGCOLOR="#cccccc" ALIGN=CENTER&gt;&lt;FONT FACE=ARIAL SIZE=3&gt;
      -&lt;BR&gt;
      EVM-6YS&lt;BR&gt;
      EVM-1E&lt;BR&gt;
      EVM-1G&lt;BR&gt;
      EVM-1D&lt;BR&gt;
      -&lt;BR&gt;
      -&lt;BR&gt;&lt;/FONT&gt;
    &lt;/TD&gt;
    &lt;TD BGCOLOR="#cccccc" ALIGN=CENTER&gt;&lt;FONT FACE=ARIAL SIZE=3&gt;
      G4B&lt;BR&gt;
      G4A&lt;BR&gt;
      TR04-3S1&lt;BR&gt;
      TRG04-2S1&lt;BR&gt;
      -&lt;BR&gt;
      -&lt;BR&gt;
      -&lt;BR&gt;&lt;/FONT&gt;
    &lt;/TD&gt;
    &lt;TD BGCOLOR="#cccccc" ALIGN=CENTER&gt;&lt;FONT FACE=ARIAL SIZE=3&gt;
      -&lt;BR&gt;
      -&lt;BR&gt;
      DVR-43A&lt;BR&gt;
      CVR-42C&lt;BR&gt;
      CVR-42A/C&lt;BR&gt;
      -&lt;BR&gt;
      -&lt;BR&gt;&lt;/FONT&gt;
    &lt;/TD&gt;
  &lt;/TR&gt;
&lt;/TABLE&gt;
&lt;P&gt;
&lt;FONT SIZE=4 FACE=ARIAL&gt;&lt;B&gt;ALT =&amp;nbsp;ALTERNATE&lt;/B&gt;&lt;/FONT&gt;
&lt;P&gt;

&amp;nbsp;
&lt;P&gt;
&lt;/td&gt;
&lt;/tr&gt;
&lt;/table&gt;</description>
<packages>
<package name="R1206">
<description>&lt;b&gt;RESISTOR&lt;/b&gt;</description>
<wire x1="0.9525" y1="-0.8128" x2="-0.9652" y2="-0.8128" width="0.1524" layer="51"/>
<wire x1="0.9525" y1="0.8128" x2="-0.9652" y2="0.8128" width="0.1524" layer="51"/>
<wire x1="-2.473" y1="0.983" x2="2.473" y2="0.983" width="0.0508" layer="39"/>
<wire x1="2.473" y1="0.983" x2="2.473" y2="-0.983" width="0.0508" layer="39"/>
<wire x1="2.473" y1="-0.983" x2="-2.473" y2="-0.983" width="0.0508" layer="39"/>
<wire x1="-2.473" y1="-0.983" x2="-2.473" y2="0.983" width="0.0508" layer="39"/>
<smd name="2" x="1.422" y="0" dx="1.6" dy="1.803" layer="1"/>
<smd name="1" x="-1.422" y="0" dx="1.6" dy="1.803" layer="1"/>
<text x="-1.27" y="1.27" size="1.27" layer="25">&gt;NAME</text>
<text x="-1.27" y="-2.54" size="1.27" layer="27">&gt;VALUE</text>
<rectangle x1="-1.6891" y1="-0.8763" x2="-0.9525" y2="0.8763" layer="51"/>
<rectangle x1="0.9525" y1="-0.8763" x2="1.6891" y2="0.8763" layer="51"/>
<rectangle x1="-0.3" y1="-0.7" x2="0.3" y2="0.7" layer="35"/>
</package>
<package name="C0805">
<description>&lt;b&gt;CAPACITOR&lt;/b&gt;&lt;p&gt;</description>
<wire x1="-1.973" y1="0.983" x2="1.973" y2="0.983" width="0.0508" layer="39"/>
<wire x1="1.973" y1="-0.983" x2="-1.973" y2="-0.983" width="0.0508" layer="39"/>
<wire x1="-1.973" y1="-0.983" x2="-1.973" y2="0.983" width="0.0508" layer="39"/>
<wire x1="-0.381" y1="0.66" x2="0.381" y2="0.66" width="0.1016" layer="51"/>
<wire x1="-0.356" y1="-0.66" x2="0.381" y2="-0.66" width="0.1016" layer="51"/>
<wire x1="1.973" y1="0.983" x2="1.973" y2="-0.983" width="0.0508" layer="39"/>
<smd name="1" x="-0.95" y="0" dx="1.3" dy="1.5" layer="1"/>
<smd name="2" x="0.95" y="0" dx="1.3" dy="1.5" layer="1"/>
<text x="-1.27" y="1.27" size="1.27" layer="25">&gt;NAME</text>
<text x="-1.27" y="-2.54" size="1.27" layer="27">&gt;VALUE</text>
<rectangle x1="-1.0922" y1="-0.7239" x2="-0.3421" y2="0.7262" layer="51"/>
<rectangle x1="0.3556" y1="-0.7239" x2="1.1057" y2="0.7262" layer="51"/>
<rectangle x1="-0.1001" y1="-0.4001" x2="0.1001" y2="0.4001" layer="35"/>
</package>
</packages>
</library>
<library name="PSU">
<packages>
<package name="HV1363">
<pad name="GND1" x="1.905" y="1.27" drill="0.8"/>
<pad name="VIN" x="4.445" y="1.27" drill="0.8"/>
<pad name="EN" x="19.685" y="1.27" drill="0.8"/>
<pad name="VBIAS" x="1.905" y="22.86" drill="0.8"/>
<pad name="RADJ" x="4.445" y="22.86" drill="0.8"/>
<pad name="GND2" x="6.985" y="22.86" drill="0.8"/>
<pad name="VOUT" x="17.145" y="22.86" drill="0.8"/>
<wire x1="0" y1="0" x2="0" y2="24.13" width="0.127" layer="21"/>
<wire x1="0" y1="24.13" x2="24.13" y2="24.13" width="0.127" layer="21"/>
<wire x1="24.13" y1="24.13" x2="24.13" y2="0" width="0.127" layer="21"/>
<wire x1="24.13" y1="0" x2="0" y2="0" width="0.127" layer="21"/>
<text x="2.54" y="2.54" size="1.27" layer="21" rot="R90">GND</text>
<text x="5.08" y="2.54" size="1.27" layer="21" rot="R90">Vin</text>
<text x="20.32" y="2.54" size="1.27" layer="21" rot="R90">EN</text>
<text x="2.54" y="16.51" size="1.27" layer="21" rot="R90">Vbias</text>
<text x="5.08" y="14.605" size="1.27" layer="21" rot="R90">Radjust</text>
<text x="7.62" y="16.51" size="1.27" layer="21" rot="R90">GND</text>
<text x="17.78" y="17.78" size="1.27" layer="21" rot="R90">Vout</text>
</package>
</packages>
</library>
<library name="con-wago-500">
<description>&lt;b&gt;Wago Screw Clamps&lt;/b&gt;&lt;p&gt;
Grid 5.00 mm&lt;p&gt;
&lt;author&gt;Created by librarian@cadsoft.de&lt;/author&gt;</description>
<packages>
<package name="W237-102">
<description>&lt;b&gt;WAGO SCREW CLAMP&lt;/b&gt;</description>
<wire x1="-3.491" y1="-2.286" x2="-1.484" y2="-0.279" width="0.254" layer="51"/>
<wire x1="1.488" y1="-2.261" x2="3.469" y2="-0.254" width="0.254" layer="51"/>
<wire x1="-4.989" y1="-5.461" x2="4.993" y2="-5.461" width="0.1524" layer="21"/>
<wire x1="4.993" y1="3.734" x2="4.993" y2="3.531" width="0.1524" layer="21"/>
<wire x1="4.993" y1="3.734" x2="-4.989" y2="3.734" width="0.1524" layer="21"/>
<wire x1="-4.989" y1="-5.461" x2="-4.989" y2="-3.073" width="0.1524" layer="21"/>
<wire x1="-4.989" y1="-3.073" x2="-3.389" y2="-3.073" width="0.1524" layer="21"/>
<wire x1="-3.389" y1="-3.073" x2="-1.611" y2="-3.073" width="0.1524" layer="51"/>
<wire x1="-1.611" y1="-3.073" x2="1.615" y2="-3.073" width="0.1524" layer="21"/>
<wire x1="3.393" y1="-3.073" x2="4.993" y2="-3.073" width="0.1524" layer="21"/>
<wire x1="-4.989" y1="-3.073" x2="-4.989" y2="3.531" width="0.1524" layer="21"/>
<wire x1="4.993" y1="-3.073" x2="4.993" y2="-5.461" width="0.1524" layer="21"/>
<wire x1="-4.989" y1="3.531" x2="4.993" y2="3.531" width="0.1524" layer="21"/>
<wire x1="-4.989" y1="3.531" x2="-4.989" y2="3.734" width="0.1524" layer="21"/>
<wire x1="4.993" y1="3.531" x2="4.993" y2="-3.073" width="0.1524" layer="21"/>
<wire x1="1.615" y1="-3.073" x2="3.393" y2="-3.073" width="0.1524" layer="51"/>
<circle x="-2.5" y="-1.27" radius="1.4986" width="0.1524" layer="51"/>
<circle x="-2.5" y="2.2098" radius="0.508" width="0.1524" layer="21"/>
<circle x="2.5038" y="-1.27" radius="1.4986" width="0.1524" layer="51"/>
<circle x="2.5038" y="2.2098" radius="0.508" width="0.1524" layer="21"/>
<pad name="1" x="-2.5" y="-1.27" drill="1.1938" shape="long" rot="R90"/>
<pad name="2" x="2.5" y="-1.27" drill="1.1938" shape="long" rot="R90"/>
<text x="-5.04" y="-7.62" size="1.27" layer="27" ratio="10">&gt;VALUE</text>
<text x="-3.8462" y="-5.0038" size="1.27" layer="25" ratio="10">&gt;NAME</text>
<text x="-4.532" y="0.635" size="1.27" layer="21" ratio="10">1</text>
<text x="0.421" y="0.635" size="1.27" layer="21" ratio="10">2</text>
</package>
</packages>
</library>
<library name="linear">
<description>&lt;b&gt;Linear Devices&lt;/b&gt;&lt;p&gt;
Operational amplifiers,  comparators, voltage regulators, ADCs, DACs, etc.&lt;p&gt;
&lt;author&gt;Created by librarian@cadsoft.de&lt;/author&gt;</description>
<packages>
<package name="SOT223">
<description>&lt;b&gt;Small Outline Transistor&lt;/b&gt;</description>
<wire x1="3.2766" y1="1.778" x2="3.2766" y2="-1.778" width="0.2032" layer="21"/>
<wire x1="3.2766" y1="-1.778" x2="-3.2766" y2="-1.778" width="0.2032" layer="21"/>
<wire x1="-3.2766" y1="-1.778" x2="-3.2766" y2="1.778" width="0.2032" layer="21"/>
<wire x1="-3.2766" y1="1.778" x2="3.2766" y2="1.778" width="0.2032" layer="21"/>
<smd name="1" x="-2.3114" y="-3.0988" dx="1.2192" dy="2.2352" layer="1"/>
<smd name="2" x="0" y="-3.0988" dx="1.2192" dy="2.2352" layer="1"/>
<smd name="3" x="2.3114" y="-3.0988" dx="1.2192" dy="2.2352" layer="1"/>
<smd name="4" x="0" y="3.099" dx="3.6" dy="2.2" layer="1"/>
<text x="1.0208" y="-4.318" size="0.8128" layer="21" ratio="12">3</text>
<text x="1.905" y="2.54" size="0.8128" layer="21" ratio="12">4</text>
<text x="-3.4526" y="-4.318" size="0.8128" layer="21" ratio="12">1</text>
<text x="-1.2906" y="-4.3274" size="0.8128" layer="21" ratio="12">2</text>
<text x="-2.54" y="0.0508" size="1.27" layer="25">&gt;NAME</text>
<text x="-2.54" y="-1.3208" size="1.27" layer="27">&gt;VALUE</text>
<rectangle x1="-1.6002" y1="1.8034" x2="1.6002" y2="3.6576" layer="51"/>
<rectangle x1="-0.4318" y1="-3.6576" x2="0.4318" y2="-1.8034" layer="51"/>
<rectangle x1="-2.7432" y1="-3.6576" x2="-1.8796" y2="-1.8034" layer="51"/>
<rectangle x1="1.8796" y1="-3.6576" x2="2.7432" y2="-1.8034" layer="51"/>
<rectangle x1="-1.6002" y1="1.8034" x2="1.6002" y2="3.6576" layer="51"/>
<rectangle x1="-0.4318" y1="-3.6576" x2="0.4318" y2="-1.8034" layer="51"/>
<rectangle x1="-2.7432" y1="-3.6576" x2="-1.8796" y2="-1.8034" layer="51"/>
<rectangle x1="1.8796" y1="-3.6576" x2="2.7432" y2="-1.8034" layer="51"/>
</package>
</packages>
</library>
</libraries>
<attributes>
</attributes>
<variantdefs>
</variantdefs>
<classes>
<class number="0" name="default" width="0" drill="0">
</class>
</classes>
<designrules name="default">
<description language="de">&lt;b&gt;EAGLE Design Rules&lt;/b&gt;
&lt;p&gt;
Die Standard-Design-Rules sind so gewählt, dass sie für 
die meisten Anwendungen passen. Sollte ihre Platine 
besondere Anforderungen haben, treffen Sie die erforderlichen
Einstellungen hier und speichern die Design Rules unter 
einem neuen Namen ab.</description>
<description language="en">&lt;b&gt;EAGLE Design Rules&lt;/b&gt;
&lt;p&gt;
The default Design Rules have been set to cover
a wide range of applications. Your particular design
may have different requirements, so please make the
necessary adjustments and save your customized
design rules under a new name.</description>
<param name="layerSetup" value="(1*16)"/>
<param name="mtCopper" value="0.035mm 0.035mm 0.035mm 0.035mm 0.035mm 0.035mm 0.035mm 0.035mm 0.035mm 0.035mm 0.035mm 0.035mm 0.035mm 0.035mm 0.035mm 0.035mm"/>
<param name="mtIsolate" value="1.5mm 0.15mm 0.2mm 0.15mm 0.2mm 0.15mm 0.2mm 0.15mm 0.2mm 0.15mm 0.2mm 0.15mm 0.2mm 0.15mm 0.2mm"/>
<param name="mdWireWire" value="8mil"/>
<param name="mdWirePad" value="8mil"/>
<param name="mdWireVia" value="8mil"/>
<param name="mdPadPad" value="8mil"/>
<param name="mdPadVia" value="8mil"/>
<param name="mdViaVia" value="8mil"/>
<param name="mdSmdPad" value="8mil"/>
<param name="mdSmdVia" value="8mil"/>
<param name="mdSmdSmd" value="8mil"/>
<param name="mdViaViaSameLayer" value="8mil"/>
<param name="mnLayersViaInSmd" value="2"/>
<param name="mdCopperDimension" value="40mil"/>
<param name="mdDrill" value="8mil"/>
<param name="mdSmdStop" value="0mil"/>
<param name="msWidth" value="10mil"/>
<param name="msDrill" value="24mil"/>
<param name="msMicroVia" value="9.99mm"/>
<param name="msBlindViaRatio" value="0.5"/>
<param name="rvPadTop" value="0.25"/>
<param name="rvPadInner" value="0.25"/>
<param name="rvPadBottom" value="0.25"/>
<param name="rvViaOuter" value="0.25"/>
<param name="rvViaInner" value="0.25"/>
<param name="rvMicroViaOuter" value="0.25"/>
<param name="rvMicroViaInner" value="0.25"/>
<param name="rlMinPadTop" value="10mil"/>
<param name="rlMaxPadTop" value="20mil"/>
<param name="rlMinPadInner" value="10mil"/>
<param name="rlMaxPadInner" value="20mil"/>
<param name="rlMinPadBottom" value="10mil"/>
<param name="rlMaxPadBottom" value="20mil"/>
<param name="rlMinViaOuter" value="8mil"/>
<param name="rlMaxViaOuter" value="20mil"/>
<param name="rlMinViaInner" value="8mil"/>
<param name="rlMaxViaInner" value="20mil"/>
<param name="rlMinMicroViaOuter" value="4mil"/>
<param name="rlMaxMicroViaOuter" value="20mil"/>
<param name="rlMinMicroViaInner" value="4mil"/>
<param name="rlMaxMicroViaInner" value="20mil"/>
<param name="psTop" value="-1"/>
<param name="psBottom" value="-1"/>
<param name="psFirst" value="-1"/>
<param name="psElongationLong" value="100"/>
<param name="psElongationOffset" value="100"/>
<param name="mvStopFrame" value="1"/>
<param name="mvCreamFrame" value="0"/>
<param name="mlMinStopFrame" value="4mil"/>
<param name="mlMaxStopFrame" value="4mil"/>
<param name="mlMinCreamFrame" value="0mil"/>
<param name="mlMaxCreamFrame" value="0mil"/>
<param name="mlViaStopLimit" value="0mil"/>
<param name="srRoundness" value="0"/>
<param name="srMinRoundness" value="0mil"/>
<param name="srMaxRoundness" value="0mil"/>
<param name="slThermalIsolate" value="10mil"/>
<param name="slThermalsForVias" value="0"/>
<param name="dpMaxLengthDifference" value="10mm"/>
<param name="dpGapFactor" value="2.5"/>
<param name="checkGrid" value="0"/>
<param name="checkAngle" value="0"/>
<param name="checkFont" value="1"/>
<param name="checkRestrict" value="1"/>
<param name="useDiameter" value="13"/>
<param name="maxErrors" value="50"/>
</designrules>
<autorouter>
<pass name="Default">
<param name="RoutingGrid" value="50mil"/>
<param name="tpViaShape" value="round"/>
<param name="PrefDir.1" value="|"/>
<param name="PrefDir.2" value="0"/>
<param name="PrefDir.3" value="0"/>
<param name="PrefDir.4" value="0"/>
<param name="PrefDir.5" value="0"/>
<param name="PrefDir.6" value="0"/>
<param name="PrefDir.7" value="0"/>
<param name="PrefDir.8" value="0"/>
<param name="PrefDir.9" value="0"/>
<param name="PrefDir.10" value="0"/>
<param name="PrefDir.11" value="0"/>
<param name="PrefDir.12" value="0"/>
<param name="PrefDir.13" value="0"/>
<param name="PrefDir.14" value="0"/>
<param name="PrefDir.15" value="0"/>
<param name="PrefDir.16" value="-"/>
<param name="cfVia" value="8"/>
<param name="cfNonPref" value="5"/>
<param name="cfChangeDir" value="2"/>
<param name="cfOrthStep" value="2"/>
<param name="cfDiagStep" value="3"/>
<param name="cfExtdStep" value="0"/>
<param name="cfBonusStep" value="1"/>
<param name="cfMalusStep" value="1"/>
<param name="cfPadImpact" value="4"/>
<param name="cfSmdImpact" value="4"/>
<param name="cfBusImpact" value="0"/>
<param name="cfHugging" value="3"/>
<param name="cfAvoid" value="4"/>
<param name="cfPolygon" value="10"/>
<param name="cfBase.1" value="0"/>
<param name="cfBase.2" value="1"/>
<param name="cfBase.3" value="1"/>
<param name="cfBase.4" value="1"/>
<param name="cfBase.5" value="1"/>
<param name="cfBase.6" value="1"/>
<param name="cfBase.7" value="1"/>
<param name="cfBase.8" value="1"/>
<param name="cfBase.9" value="1"/>
<param name="cfBase.10" value="1"/>
<param name="cfBase.11" value="1"/>
<param name="cfBase.12" value="1"/>
<param name="cfBase.13" value="1"/>
<param name="cfBase.14" value="1"/>
<param name="cfBase.15" value="1"/>
<param name="cfBase.16" value="0"/>
<param name="mnVias" value="20"/>
<param name="mnSegments" value="9999"/>
<param name="mnExtdSteps" value="9999"/>
<param name="mnRipupLevel" value="10"/>
<param name="mnRipupSteps" value="100"/>
<param name="mnRipupTotal" value="100"/>
</pass>
<pass name="Follow-me" refer="Default" active="yes">
</pass>
<pass name="Busses" refer="Default" active="yes">
<param name="cfNonPref" value="4"/>
<param name="cfBusImpact" value="4"/>
<param name="cfHugging" value="0"/>
<param name="mnVias" value="0"/>
</pass>
<pass name="Route" refer="Default" active="yes">
</pass>
<pass name="Optimize1" refer="Default" active="yes">
<param name="cfVia" value="99"/>
<param name="cfExtdStep" value="10"/>
<param name="cfHugging" value="1"/>
<param name="mnExtdSteps" value="1"/>
<param name="mnRipupLevel" value="0"/>
</pass>
<pass name="Optimize2" refer="Optimize1" active="yes">
<param name="cfNonPref" value="0"/>
<param name="cfChangeDir" value="6"/>
<param name="cfExtdStep" value="0"/>
<param name="cfBonusStep" value="2"/>
<param name="cfMalusStep" value="2"/>
<param name="cfPadImpact" value="2"/>
<param name="cfSmdImpact" value="2"/>
<param name="cfHugging" value="0"/>
</pass>
<pass name="Optimize3" refer="Optimize2" active="yes">
<param name="cfChangeDir" value="8"/>
<param name="cfPadImpact" value="0"/>
<param name="cfSmdImpact" value="0"/>
</pass>
<pass name="Optimize4" refer="Optimize3" active="yes">
<param name="cfChangeDir" value="25"/>
</pass>
</autorouter>
<elements>
<element name="IC1" library="atmel" package="TQFP44" value="MEGA323-A" x="100.41255" y="81.21015">
<attribute name="OC_NEWARK" value="unknown" x="86.41255" y="101.21015" size="1.778" layer="27" display="off"/>
<attribute name="MPN" value="" x="86.41255" y="101.21015" size="1.778" layer="27" display="off"/>
<attribute name="MF" value="" x="86.41255" y="101.21015" size="1.778" layer="27" display="off"/>
<attribute name="OC_FARNELL" value="unknown" x="86.41255" y="101.21015" size="1.778" layer="27" display="off"/>
</element>
<element name="SL3" library="con-lstb" package="MA05-2" value="AVR_ISP" x="86.01075" y="81.21015" rot="R90">
<attribute name="OC_NEWARK" value="unknown" x="86.01075" y="81.21015" size="1.778" layer="27" rot="R90" display="off"/>
<attribute name="MPN" value="" x="86.01075" y="81.21015" size="1.778" layer="27" rot="R90" display="off"/>
<attribute name="MF" value="" x="86.01075" y="81.21015" size="1.778" layer="27" rot="R90" display="off"/>
<attribute name="OC_FARNELL" value="unknown" x="86.01075" y="81.21015" size="1.778" layer="27" rot="R90" display="off"/>
</element>
<element name="U$5" library="crystal" package="CFPX-217" value="CFPX–217" x="109.6137" y="79.2099" rot="R90"/>
<element name="N1" library="nixie" package="Z573M" value="Z573M" x="45" y="44"/>
<element name="LD1" library="led_driver" package="SOP24" value="SCT2026" x="41.79935" y="85.19915"/>
<element name="D1" library="diode" package="MICROMELF-R" value="" x="59.69" y="28.575" rot="R270"/>
<element name="D2" library="diode" package="MICROMELF-R" value="" x="36.83" y="23.495" rot="R270"/>
<element name="D3" library="diode" package="MICROMELF-R" value="" x="30.48" y="28.575" rot="R270"/>
<element name="D4" library="diode" package="MICROMELF-R" value="" x="26.67" y="36.195" rot="R270"/>
<element name="D5" library="diode" package="MICROMELF-R" value="" x="30.48" y="59.69" rot="R90"/>
<element name="D6" library="diode" package="MICROMELF-R" value="" x="36.83" y="64.135" rot="R90"/>
<element name="D7" library="diode" package="MICROMELF-R" value="" x="45.085" y="66.04" rot="R90"/>
<element name="D8" library="diode" package="MICROMELF-R" value="" x="53.34" y="64.135" rot="R90"/>
<element name="D9" library="diode" package="MICROMELF-R" value="" x="59.69" y="59.055" rot="R270"/>
<element name="D10" library="diode" package="MICROMELF-R" value="" x="63.5" y="36.195" rot="R90"/>
<element name="D11" library="diode" package="MICROMELF-R" value="" x="63.5" y="52.07" rot="R270"/>
<element name="QN1" library="transistor-small-signal" package="SOT23" value="BSS123" x="46.355" y="113.665"/>
<element name="RP1" library="rcl" package="R1206" value="2.2k" x="38.1" y="95.885" rot="R90"/>
<element name="REXT1" library="rcl" package="R1206" value="800r-1k" x="35.56" y="102.235"/>
<element name="C1" library="rcl" package="C0805" value="4.7uF" x="34.925" y="95.885" rot="R90"/>
<element name="RS1" library="rcl" package="R1206" value="10R" x="31.75" y="95.885" rot="R90"/>
<element name="PSUNIXIE" library="PSU" package="HV1363" value="HV1363" x="1.905" y="107.95" rot="R270"/>
<element name="X2" library="con-wago-500" package="W237-102" value="" x="4.445" y="114.935" rot="R90">
<attribute name="OC_NEWARK" value="70K9898" x="-63.555" y="43.935" size="1.778" layer="27" rot="R90" display="off"/>
<attribute name="MPN" value="237-102" x="-63.555" y="43.935" size="1.778" layer="27" rot="R90" display="off"/>
<attribute name="MF" value="" x="-63.555" y="43.935" size="1.778" layer="27" rot="R90" display="off"/>
<attribute name="OC_FARNELL" value="unknown" x="-63.555" y="43.935" size="1.778" layer="27" rot="R90" display="off"/>
</element>
<element name="C2" library="rcl" package="C0805" value="100nF" x="12.22375" y="114.31905" rot="R90"/>
<element name="C3" library="rcl" package="C0805" value="10uF" x="22.62505" y="114.31905" rot="R90"/>
<element name="IC2" library="linear" package="SOT223" value="LM340MP-05" x="17.4244" y="114.31905"/>
<element name="RADJ" library="rcl" package="R1206" value="47k" x="28.575" y="102.235" rot="R90"/>
<element name="RL1" library="rcl" package="R1206" value="?" x="54.85" y="22.215"/>
</elements>
<signals>
<signal name="AGND">
<contactref element="IC1" pad="28"/>
</signal>
<signal name="AVCC">
<contactref element="IC1" pad="27"/>
</signal>
<signal name="GND1">
<contactref element="IC1" pad="18"/>
</signal>
<signal name="GND2">
<contactref element="IC1" pad="39"/>
</signal>
<signal name="VCC1">
<contactref element="IC1" pad="17"/>
</signal>
<signal name="VCC">
<contactref element="IC1" pad="5"/>
<contactref element="SL3" pad="2"/>
<contactref element="C3" pad="1"/>
<contactref element="IC2" pad="3"/>
<wire x1="94.61255" y1="82.01015" x2="91.2113" y2="82.01015" width="0.4064" layer="1"/>
<wire x1="91.2113" y1="82.01015" x2="89.6112" y2="80.41005" width="0.4064" layer="1"/>
<wire x1="89.6112" y1="80.41005" x2="89.6112" y2="76.0095" width="0.4064" layer="1"/>
<wire x1="89.6112" y1="76.0095" x2="88.011" y2="74.4093" width="0.4064" layer="1"/>
<wire x1="88.011" y1="74.4093" x2="86.4616" y2="74.4093" width="0.4064" layer="1"/>
<wire x1="86.4616" y1="74.4093" x2="84.74075" y2="76.13015" width="0.4064" layer="1"/>
<wire x1="19.7358" y1="111.22025" x2="21.92655" y2="111.22025" width="1.016" layer="1"/>
<wire x1="21.92655" y1="111.22025" x2="22.62505" y2="111.91875" width="1.016" layer="1"/>
<wire x1="22.62505" y1="111.91875" x2="22.62505" y2="113.36905" width="1.016" layer="1"/>
<wire x1="22.62505" y1="111.91875" x2="84.74075" y2="76.13015" width="0" layer="19" extent="1-1"/>
</signal>
<signal name="VCC2">
<contactref element="IC1" pad="38"/>
</signal>
<signal name="GND">
<contactref element="IC1" pad="6"/>
<contactref element="SL3" pad="4"/>
<contactref element="SL3" pad="10"/>
<contactref element="SL3" pad="6"/>
<contactref element="SL3" pad="8"/>
<contactref element="QN1" pad="2"/>
<contactref element="D11" pad="A"/>
<contactref element="D1" pad="A"/>
<contactref element="D2" pad="A"/>
<contactref element="D3" pad="A"/>
<contactref element="D4" pad="A"/>
<contactref element="D5" pad="A"/>
<contactref element="D6" pad="A"/>
<contactref element="D7" pad="A"/>
<contactref element="D8" pad="A"/>
<contactref element="D9" pad="A"/>
<contactref element="D10" pad="A"/>
<contactref element="REXT1" pad="1"/>
<contactref element="C1" pad="2"/>
<contactref element="PSUNIXIE" pad="GND2"/>
<contactref element="PSUNIXIE" pad="GND1"/>
<contactref element="C2" pad="2"/>
<contactref element="C3" pad="2"/>
<contactref element="IC2" pad="4"/>
<contactref element="X2" pad="2"/>
<contactref element="RADJ" pad="1"/>
<wire x1="94.61255" y1="81.21015" x2="91.61145" y2="81.21015" width="0.4064" layer="1"/>
<wire x1="91.61145" y1="81.21015" x2="90.4113" y2="80.01" width="0.4064" layer="1"/>
<wire x1="90.4113" y1="80.01" x2="90.4113" y2="75.60945" width="0.4064" layer="1"/>
<wire x1="90.4113" y1="75.60945" x2="88.41105" y2="73.6092" width="0.4064" layer="1"/>
<wire x1="88.41105" y1="73.6092" x2="83.61045" y2="73.6092" width="0.4064" layer="1"/>
<wire x1="83.61045" y1="73.6092" x2="81.6102" y2="75.60945" width="0.4064" layer="1"/>
<wire x1="81.6102" y1="75.60945" x2="81.6102" y2="77.6097" width="0.4064" layer="1"/>
<wire x1="84.74075" y1="81.21015" x2="84.74075" y2="83.75015" width="0.4064" layer="1"/>
<wire x1="84.74075" y1="83.75015" x2="84.74075" y2="86.29015" width="0.4064" layer="1"/>
<wire x1="84.74075" y1="81.21015" x2="84.74075" y2="78.67015" width="0.4064" layer="1"/>
<wire x1="84.74075" y1="78.67015" x2="82.67065" y2="78.67015" width="0.4064" layer="1"/>
<wire x1="82.67065" y1="78.67015" x2="81.6102" y2="77.6097" width="0.4064" layer="1"/>
<wire x1="12.22375" y1="115.26905" x2="12.22375" y2="116.71935" width="1.016" layer="1"/>
<wire x1="12.22375" y1="116.71935" x2="13.02385" y2="117.51945" width="1.016" layer="1"/>
<wire x1="13.02385" y1="117.51945" x2="17.323" y2="117.51945" width="1.016" layer="1"/>
<wire x1="17.323" y1="117.51945" x2="17.4244" y2="117.41805" width="1.016" layer="1"/>
<wire x1="22.62505" y1="115.26905" x2="22.62505" y2="116.71935" width="1.016" layer="1"/>
<wire x1="22.62505" y1="116.71935" x2="21.92635" y2="117.41805" width="1.016" layer="1"/>
<wire x1="21.92635" y1="117.41805" x2="17.4244" y2="117.41805" width="1.016" layer="1"/>
<polygon width="0.4064" layer="1">
<vertex x="0" y="0"/>
<vertex x="215.265" y="0"/>
<vertex x="215.265" y="135.255"/>
<vertex x="0" y="135.255"/>
</polygon>
<contactref element="LD1" pad="GND"/>
</signal>
<signal name="MOSI">
<contactref element="SL3" pad="1"/>
<contactref element="IC1" pad="1"/>
<wire x1="94.61255" y1="85.21015" x2="92.41205" y2="85.21015" width="0.4064" layer="1"/>
<wire x1="92.41205" y1="85.21015" x2="91.61145" y2="86.01075" width="0.4064" layer="1"/>
<via x="91.61145" y="86.01075" extent="1-16" drill="0.6" shape="square"/>
<wire x1="91.61145" y1="86.01075" x2="90.4113" y2="86.01075" width="0.4064" layer="16"/>
<wire x1="90.4113" y1="86.01075" x2="90.01125" y2="85.6107" width="0.4064" layer="16"/>
<wire x1="90.01125" y1="85.6107" x2="90.01125" y2="78.86065" width="0.4064" layer="16"/>
<wire x1="90.01125" y1="78.86065" x2="87.28075" y2="76.13015" width="0.4064" layer="16"/>
</signal>
<signal name="MISO">
<contactref element="SL3" pad="9"/>
<contactref element="IC1" pad="2"/>
<wire x1="94.61255" y1="84.41015" x2="89.16075" y2="84.41015" width="0.4064" layer="1"/>
<wire x1="89.16075" y1="84.41015" x2="87.28075" y2="86.29015" width="0.4064" layer="1"/>
</signal>
<signal name="SCK">
<contactref element="SL3" pad="7"/>
<contactref element="IC1" pad="3"/>
<wire x1="94.61255" y1="83.61015" x2="87.42075" y2="83.61015" width="0.4064" layer="1"/>
<wire x1="87.42075" y1="83.61015" x2="87.28075" y2="83.75015" width="0.4064" layer="1"/>
</signal>
<signal name="RESET">
<contactref element="SL3" pad="5"/>
</signal>
<signal name="N$1">
<contactref element="N1" pad="0"/>
<contactref element="LD1" pad="O0"/>
<contactref element="D1" pad="C"/>
<wire x1="59.46" y1="32.47" x2="39.89435" y2="79.69915" width="0" layer="19" extent="1-1"/>
<wire x1="59.69" y1="29.375" x2="59.46" y2="32.47" width="0" layer="19" extent="1-1"/>
</signal>
<signal name="N$2">
<contactref element="N1" pad="1"/>
<contactref element="LD1" pad="O1"/>
<contactref element="D2" pad="C"/>
<wire x1="36.97" y1="27.33" x2="41.16435" y2="79.69915" width="0" layer="19" extent="1-1"/>
<wire x1="36.83" y1="24.295" x2="36.97" y2="27.33" width="0" layer="19" extent="1-1"/>
</signal>
<signal name="N$3">
<contactref element="N1" pad="2"/>
<contactref element="LD1" pad="O2"/>
<contactref element="D3" pad="C"/>
<wire x1="30.54" y1="32.47" x2="42.43435" y2="79.69915" width="0" layer="19" extent="1-1"/>
<wire x1="30.48" y1="29.375" x2="30.54" y2="32.47" width="0" layer="19" extent="1-1"/>
</signal>
<signal name="N$4">
<contactref element="N1" pad="3"/>
<contactref element="LD1" pad="O3"/>
<contactref element="D4" pad="C"/>
<wire x1="26.96" y1="39.88" x2="43.70435" y2="79.69915" width="0" layer="19" extent="1-1"/>
<wire x1="26.67" y1="36.995" x2="26.96" y2="39.88" width="0" layer="19" extent="1-1"/>
</signal>
<signal name="N$5">
<contactref element="N1" pad="4"/>
<contactref element="LD1" pad="O4"/>
<contactref element="D5" pad="C"/>
<wire x1="30.48" y1="58.89" x2="44.97435" y2="79.69915" width="0" layer="19" extent="1-1"/>
<wire x1="30.54" y1="55.53" x2="30.48" y2="58.89" width="0" layer="19" extent="1-1"/>
</signal>
<signal name="N$6">
<contactref element="N1" pad="5"/>
<contactref element="LD1" pad="O5"/>
<contactref element="D6" pad="C"/>
<wire x1="36.83" y1="63.335" x2="46.24435" y2="79.69915" width="0" layer="19" extent="1-1"/>
<wire x1="36.97" y1="60.67" x2="36.83" y2="63.335" width="0" layer="19" extent="1-1"/>
</signal>
<signal name="N$7">
<contactref element="N1" pad="6"/>
<contactref element="LD1" pad="O6"/>
<contactref element="D7" pad="C"/>
<wire x1="45.085" y1="65.24" x2="47.51435" y2="79.69915" width="0" layer="19" extent="1-1"/>
<wire x1="45" y1="62.5" x2="45.085" y2="65.24" width="0" layer="19" extent="1-1"/>
</signal>
<signal name="N$8">
<contactref element="N1" pad="7"/>
<contactref element="LD1" pad="O7"/>
<contactref element="D8" pad="C"/>
<wire x1="53.34" y1="63.335" x2="48.78435" y2="79.69915" width="0" layer="19" extent="1-1"/>
<wire x1="53.03" y1="60.67" x2="53.34" y2="63.335" width="0" layer="19" extent="1-1"/>
</signal>
<signal name="N$9">
<contactref element="N1" pad="8"/>
<contactref element="LD1" pad="O8"/>
<contactref element="D9" pad="C"/>
<wire x1="59.69" y1="59.855" x2="48.78435" y2="90.69915" width="0" layer="19" extent="1-1"/>
<wire x1="59.46" y1="55.53" x2="59.69" y2="59.855" width="0" layer="19" extent="1-1"/>
</signal>
<signal name="N$10">
<contactref element="N1" pad="9"/>
<contactref element="LD1" pad="O9"/>
<contactref element="D10" pad="C"/>
<wire x1="63.04" y1="39.88" x2="47.51435" y2="90.69915" width="0" layer="19" extent="1-1"/>
<wire x1="63.5" y1="35.395" x2="63.04" y2="39.88" width="0" layer="19" extent="1-1"/>
</signal>
<signal name="N$12">
<contactref element="N1" pad="DP"/>
<contactref element="LD1" pad="O11"/>
<contactref element="D11" pad="C"/>
<wire x1="63.5" y1="52.87" x2="44.97435" y2="90.69915" width="0" layer="19" extent="1-1"/>
<wire x1="63.04" y1="48.12" x2="63.5" y2="52.87" width="0" layer="19" extent="1-1"/>
</signal>
<signal name="CN1">
<contactref element="QN1" pad="1"/>
</signal>
<signal name="N$95">
<contactref element="QN1" pad="3"/>
<contactref element="RP1" pad="2"/>
<contactref element="LD1" pad="OE/"/>
<wire x1="38.1" y1="97.307" x2="46.355" y2="114.765" width="0" layer="19" extent="1-1"/>
<wire x1="38.62435" y1="90.69915" x2="38.1" y2="97.307" width="0" layer="19" extent="1-1"/>
</signal>
<signal name="N$11">
<contactref element="LD1" pad="REXT"/>
<contactref element="REXT1" pad="2"/>
<wire x1="36.08435" y1="90.69915" x2="36.982" y2="102.235" width="0" layer="19" extent="1-1"/>
</signal>
<signal name="N$14">
<contactref element="LD1" pad="VDD"/>
<contactref element="C1" pad="1"/>
<contactref element="RS1" pad="1"/>
<wire x1="31.75" y1="94.463" x2="34.925" y2="94.935" width="0" layer="19" extent="1-1"/>
<wire x1="34.81435" y1="90.69915" x2="34.925" y2="94.935" width="0" layer="19" extent="1-1"/>
</signal>
<signal name="+5V">
<contactref element="RS1" pad="2"/>
<contactref element="RP1" pad="1"/>
<wire x1="31.75" y1="97.307" x2="38.1" y2="94.463" width="0" layer="19" extent="1-1"/>
</signal>
<signal name="+24V">
<contactref element="PSUNIXIE" pad="VOUT"/>
<contactref element="RL1" pad="2"/>
<wire x1="56.272" y1="22.215" x2="24.765" y2="90.805" width="0" layer="19" extent="1-1"/>
</signal>
<signal name="VSPL">
<contactref element="X2" pad="1"/>
<contactref element="C2" pad="1"/>
<contactref element="IC2" pad="1"/>
<contactref element="PSUNIXIE" pad="VIN"/>
<contactref element="PSUNIXIE" pad="EN"/>
<wire x1="12.22375" y1="113.36905" x2="12.22375" y2="111.91875" width="1.016" layer="1"/>
<wire x1="12.22375" y1="111.91875" x2="12.92225" y2="111.22025" width="1.016" layer="1"/>
<wire x1="12.92225" y1="111.22025" x2="15.113" y2="111.22025" width="1.016" layer="1"/>
<wire x1="5.715" y1="112.435" x2="6.985" y2="111.165" width="0.6096" layer="1"/>
<wire x1="6.985" y1="111.165" x2="6.985" y2="105.41" width="0.6096" layer="1"/>
<wire x1="6.985" y1="105.41" x2="5.08" y2="103.505" width="0.6096" layer="1"/>
<wire x1="5.08" y1="103.505" x2="3.175" y2="103.505" width="0.6096" layer="1"/>
<wire x1="3.175" y1="103.505" x2="3.175" y2="88.265" width="0.6096" layer="1"/>
<wire x1="6.985" y1="111.165" x2="9.18905" y2="113.36905" width="0.6096" layer="1"/>
<wire x1="9.18905" y1="113.36905" x2="12.22375" y2="113.36905" width="0.6096" layer="1"/>
</signal>
<signal name="N$13">
<contactref element="PSUNIXIE" pad="RADJ"/>
<contactref element="RADJ" pad="2"/>
<wire x1="24.765" y1="103.505" x2="28.575" y2="103.657" width="0" layer="19" extent="1-1"/>
</signal>
<signal name="N$15">
<contactref element="N1" pad="A"/>
<contactref element="RL1" pad="1"/>
<wire x1="53.428" y1="22.215" x2="53.03" y2="27.33" width="0" layer="19" extent="1-1"/>
</signal>
<signal name="N$16">
<contactref element="IC1" pad="26"/>
<contactref element="U$5" pad="B"/>
<wire x1="106.21255" y1="79.61015" x2="108.71395" y2="79.61015" width="0.4064" layer="1"/>
<wire x1="108.71395" y1="79.61015" x2="109.6137" y2="80.5099" width="0.4064" layer="1"/>
</signal>
<signal name="N$17">
<contactref element="U$5" pad="A"/>
<contactref element="IC1" pad="25"/>
<wire x1="106.21255" y1="78.81015" x2="108.71345" y2="78.81015" width="0.4064" layer="1"/>
<wire x1="108.71345" y1="78.81015" x2="109.6137" y2="77.9099" width="0.4064" layer="1"/>
</signal>
</signals>
</board>
</drawing>
</eagle>
